\relax 
\providecommand\hyper@newdestlabel[2]{}
\providecommand\HyperFirstAtBeginDocument{\AtBeginDocument}
\HyperFirstAtBeginDocument{\ifx\hyper@anchor\@undefined
\global\let\oldcontentsline\contentsline
\gdef\contentsline#1#2#3#4{\oldcontentsline{#1}{#2}{#3}}
\global\let\oldnewlabel\newlabel
\gdef\newlabel#1#2{\newlabelxx{#1}#2}
\gdef\newlabelxx#1#2#3#4#5#6{\oldnewlabel{#1}{{#2}{#3}}}
\AtEndDocument{\ifx\hyper@anchor\@undefined
\let\contentsline\oldcontentsline
\let\newlabel\oldnewlabel
\fi}
\fi}
\global\let\hyper@last\relax 
\gdef\HyperFirstAtBeginDocument#1{#1}
\providecommand\HyField@AuxAddToFields[1]{}
\providecommand\HyField@AuxAddToCoFields[2]{}
\catcode `"\active 
\catcode `<\active 
\catcode `>\active 
\@nameuse{es@quoting}
\babel@aux{spanish}{}
\@writefile{nav}{\headcommand {\slideentry {0}{0}{1}{1/1}{}{0}}}
\@writefile{nav}{\headcommand {\beamer@framepages {1}{1}}}
\@writefile{nav}{\headcommand {\slideentry {0}{0}{2}{2/2}{}{0}}}
\@writefile{nav}{\headcommand {\beamer@framepages {2}{2}}}
\@writefile{toc}{\beamer@sectionintoc {1}{Suma Binaria}{3}{0}{1}}
\@writefile{nav}{\headcommand {\beamer@sectionpages {1}{2}}}
\@writefile{nav}{\headcommand {\beamer@subsectionpages {1}{2}}}
\@writefile{nav}{\headcommand {\sectionentry {1}{Suma Binaria}{3}{Suma Binaria}{0}}}
\providecommand*\caption@xref[2]{\@setref\relax\@undefined{#1}}
\newlabel{sumaBinariaBasica}{{1}{3}{Reglas de suma aritmética en binario\relax }{Doc-Start}{}}
\@writefile{snm}{\beamer@slide {sumaBinariaBasica}{3}}
\@writefile{nav}{\headcommand {\slideentry {1}{0}{1}{3/3}{}{0}}}
\@writefile{nav}{\headcommand {\beamer@framepages {3}{3}}}
\newlabel{fig:sumaBinaria}{{1}{4}{Tabla de verdad Suma binaria\relax }{Doc-Start}{}}
\@writefile{snm}{\beamer@slide {fig:sumaBinaria}{4}}
\@writefile{snm}{\beamer@slide {funcionBoolBin}{4}}
\newlabel{funcionBoolBin}{{1}{4}{Suma Binaria}{Doc-Start}{}}
\@writefile{nav}{\headcommand {\slideentry {1}{0}{2}{4/4}{}{0}}}
\@writefile{nav}{\headcommand {\beamer@framepages {4}{4}}}
\@writefile{toc}{\beamer@sectionintoc {2}{Medio Sumador}{5}{0}{2}}
\@writefile{nav}{\headcommand {\beamer@sectionpages {3}{4}}}
\@writefile{nav}{\headcommand {\beamer@subsectionpages {3}{4}}}
\@writefile{nav}{\headcommand {\sectionentry {2}{Medio Sumador}{5}{Medio Sumador}{0}}}
\newlabel{fig:diagramaFuncBool}{{2a}{5}{Diagrama Función booleana\relax }{Doc-Start}{}}
\@writefile{snm}{\beamer@slide {fig:diagramaFuncBool}{5}}
\newlabel{sub@fig:diagramaFuncBool}{{a}{5}{Diagrama Función booleana\relax }{Doc-Start}{}}
\@writefile{snm}{\beamer@slide {sub@fig:diagramaFuncBool}{5}}
\newlabel{fig:xorHalfAdder}{{2b}{5}{Medio sumador con XOR\relax }{Doc-Start}{}}
\@writefile{snm}{\beamer@slide {fig:xorHalfAdder}{5}}
\newlabel{sub@fig:xorHalfAdder}{{b}{5}{Medio sumador con XOR\relax }{Doc-Start}{}}
\@writefile{snm}{\beamer@slide {sub@fig:xorHalfAdder}{5}}
\newlabel{fig:diagramaMedioSumador}{{2}{5}{Propuestas Medio Sumador\relax }{Doc-Start}{}}
\@writefile{snm}{\beamer@slide {fig:diagramaMedioSumador}{5}}
\@writefile{nav}{\headcommand {\slideentry {2}{0}{1}{5/5}{}{0}}}
\@writefile{nav}{\headcommand {\beamer@framepages {5}{5}}}
\@writefile{toc}{\beamer@sectionintoc {3}{Sumador Completo}{6}{0}{3}}
\@writefile{nav}{\headcommand {\beamer@sectionpages {5}{5}}}
\@writefile{nav}{\headcommand {\beamer@subsectionpages {5}{5}}}
\@writefile{nav}{\headcommand {\sectionentry {3}{Sumador Completo}{6}{Sumador Completo}{0}}}
\newlabel{fig:diagramaSumadorCompleto}{{3}{6}{Sumador Completo\relax }{Doc-Start}{}}
\@writefile{snm}{\beamer@slide {fig:diagramaSumadorCompleto}{6}}
\@writefile{nav}{\headcommand {\slideentry {3}{0}{1}{6/6}{}{0}}}
\@writefile{nav}{\headcommand {\beamer@framepages {6}{6}}}
\newlabel{fig:DiagramaCircuito}{{4}{7}{Diagrama Lógico Sumador 8 bit\relax }{Doc-Start}{}}
\@writefile{snm}{\beamer@slide {fig:DiagramaCircuito}{7}}
\@writefile{nav}{\headcommand {\slideentry {3}{0}{2}{7/7}{}{0}}}
\@writefile{nav}{\headcommand {\beamer@framepages {7}{7}}}
\@writefile{nav}{\headcommand {\slideentry {3}{0}{3}{8/8}{}{0}}}
\@writefile{nav}{\headcommand {\beamer@framepages {8}{8}}}
\@writefile{nav}{\headcommand {\beamer@partpages {1}{8}}}
\@writefile{nav}{\headcommand {\beamer@subsectionpages {6}{8}}}
\@writefile{nav}{\headcommand {\beamer@sectionpages {6}{8}}}
\@writefile{nav}{\headcommand {\beamer@documentpages {8}}}
\@writefile{nav}{\headcommand {\gdef \inserttotalframenumber {8}}}
