\relax 
\catcode `"\active 
\catcode `<\active 
\catcode `>\active 
\@nameuse{es@quoting}
\babel@aux{spanish}{}
\@writefile{toc}{\contentsline {section}{\numberline {1}Seguridad en la ejecuci\IeC {\'o}n}{1}\protected@file@percent }
\@writefile{toc}{\contentsline {section}{\numberline {2}Objetivos de aprendizaje}{1}\protected@file@percent }
\@writefile{toc}{\contentsline {section}{\numberline {3}Material y Equipo}{1}\protected@file@percent }
\@writefile{toc}{\contentsline {section}{\numberline {4}Introducci\IeC {\'o}n}{1}\protected@file@percent }
\@writefile{toc}{\contentsline {section}{\numberline {5}Desarrollo}{2}\protected@file@percent }
\@writefile{toc}{\contentsline {subsection}{\numberline {5.1}Circuito}{2}\protected@file@percent }
\@writefile{lof}{\contentsline {figure}{\numberline {1}{\ignorespaces Contador 4 Bit usando Flip Flop\relax }}{2}\protected@file@percent }
\providecommand*\caption@xref[2]{\@setref\relax\@undefined{#1}}
\newlabel{fig:Circuito}{{1}{2}}
\@writefile{lof}{\contentsline {figure}{\numberline {2}{\ignorespaces Circuito F\IeC {\'\i }sico contador 4 Bit\relax }}{2}\protected@file@percent }
\newlabel{fig:CircuitoFisico}{{2}{2}}
\newlabel{fig:VoltCorr}{{3a}{3}}
\newlabel{sub@fig:VoltCorr}{{a}{3}}
\newlabel{fig:ResComp}{{3b}{3}}
\newlabel{sub@fig:ResComp}{{b}{3}}
\@writefile{lof}{\contentsline {figure}{\numberline {3}{\ignorespaces Tablas de experimentaci\IeC {\'o}n\relax }}{3}\protected@file@percent }
\newlabel{tablas}{{3}{3}}
\@writefile{toc}{\contentsline {subsection}{\numberline {5.2}Se\IeC {\~n}ales}{3}\protected@file@percent }
\@writefile{lof}{\contentsline {figure}{\numberline {4}{\ignorespaces Se\IeC {\~n}al Senoidal de 1[KHz] vista en el osciloscopio\relax }}{3}\protected@file@percent }
\newlabel{senial}{{4}{3}}
\@writefile{toc}{\contentsline {section}{\numberline {6}Conclusiones}{4}\protected@file@percent }
