\babel@toc {spanish}{}
\contentsline {section}{\numberline {1}Seguridad en la ejecuci\IeC {\'o}n}{1}% 
\contentsline {section}{\numberline {2}Objetivos de aprendizaje}{1}% 
\contentsline {section}{\numberline {3}Material y Equipo}{1}% 
\contentsline {section}{\numberline {4}Introducci\IeC {\'o}n}{1}% 
\contentsline {section}{\numberline {5}Desarrollo}{2}% 
\contentsline {subsection}{\numberline {5.1}Circuito}{2}% 
\contentsline {subsection}{\numberline {5.2}Se\IeC {\~n}ales}{3}% 
\contentsline {section}{\numberline {6}Conclusiones}{4}% 
