\babel@toc {spanish}{}
\contentsline {section}{\numberline {1}Secci\IeC {\'o}n}{1}% 
\contentsline {subsection}{\numberline {1.1}Diagrama de estados}{1}% 
\contentsline {subsection}{\numberline {1.2}Tabla de estados}{1}% 
\contentsline {subsection}{\numberline {1.3}Tabla de transici\IeC {\'o}n}{1}% 
