\select@language {spanish}
\contentsline {section}{\numberline {1}Seguridad en la ejecuci\IeC {\'o}n}{1}
\contentsline {section}{\numberline {2}Objetivos de aprendizaje}{1}
\contentsline {section}{\numberline {3}Material y Equipo}{1}
\contentsline {section}{\numberline {4}Actividad de investigaci\IeC {\'o}n previa}{2}
\contentsline {subsection}{\numberline {4.1}Ley de Ohm}{2}
\contentsline {subsection}{\numberline {4.2}Primera ley de corrientes de Kirchhoff (L.C.K.)}{2}
\contentsline {subsection}{\numberline {4.3}Segunda ley de tensiones de Kirchhoff (L.T.K)}{2}
\contentsline {section}{\numberline {5}Mapas}{2}
\contentsline {subsection}{\numberline {5.1}Circuito}{2}
\contentsline {subsection}{\numberline {5.2}Se\IeC {\~n}ales}{3}
\contentsline {section}{\numberline {6}Conclusiones}{4}
\contentsline {section}{\numberline {7}Referencias}{4}
