\babel@toc {spanish}{}
\contentsline {section}{\numberline {1}Seguridad en la ejecuci\IeC {\'o}n}{1}% 
\contentsline {section}{\numberline {2}Objetivos de aprendizaje}{1}% 
\contentsline {section}{\numberline {3}Material y Equipo}{1}% 
\contentsline {section}{\numberline {4}Introducci\IeC {\'o}n}{1}% 
\contentsline {section}{\numberline {5}Desarrollo}{2}% 
\contentsline {subsection}{\numberline {5.1}Circuito}{2}% 
\contentsline {subsection}{\numberline {5.2}Se\IeC {\~n}ales}{4}% 
\contentsline {section}{\numberline {6}Cuestionario}{5}% 
\contentsline {subsection}{\numberline {6.1}\IeC {\textquestiondown }Que es flip flops?}{5}% 
\contentsline {subsection}{\numberline {6.2}\IeC {\textquestiondown }Qu\IeC {\'e} es un flip flop T?}{5}% 
\contentsline {subsection}{\numberline {6.3}\IeC {\textquestiondown }Qu\IeC {\'e} es un flip flop j k?}{5}% 
\contentsline {subsection}{\numberline {6.4}\IeC {\textquestiondown }Qu\IeC {\'e} es un flip flop d?}{5}% 
\contentsline {section}{\numberline {7}Conclusiones}{5}% 
