\relax 
\catcode `"\active 
\catcode `<\active 
\catcode `>\active 
\@nameuse{es@quoting}
\babel@aux{spanish}{}
\@writefile{toc}{\contentsline {section}{\numberline {1}Seguridad en la ejecuci\IeC {\'o}n}{1}\protected@file@percent }
\@writefile{toc}{\contentsline {section}{\numberline {2}Objetivos de aprendizaje}{1}\protected@file@percent }
\@writefile{toc}{\contentsline {section}{\numberline {3}Material y Equipo}{1}\protected@file@percent }
\@writefile{toc}{\contentsline {section}{\numberline {4}Introducci\IeC {\'o}n}{1}\protected@file@percent }
\@writefile{toc}{\contentsline {section}{\numberline {5}Desarrollo}{2}\protected@file@percent }
\@writefile{toc}{\contentsline {subsection}{\numberline {5.1}Circuito}{2}\protected@file@percent }
\providecommand*\caption@xref[2]{\@setref\relax\@undefined{#1}}
\newlabel{tabla6}{{1a}{2}}
\newlabel{sub@tabla6}{{a}{2}}
\newlabel{tabla9}{{1b}{2}}
\newlabel{sub@tabla9}{{b}{2}}
\@writefile{lof}{\contentsline {figure}{\numberline {1}{\ignorespaces Tablas para l\IeC {\'\i }mites de contadores\relax }}{2}\protected@file@percent }
\newlabel{tablas}{{1}{2}}
\newlabel{subfig:Lim6}{{2a}{2}}
\newlabel{sub@subfig:Lim6}{{a}{2}}
\newlabel{subfig:Lim9}{{2b}{2}}
\newlabel{sub@subfig:Lim9}{{b}{2}}
\@writefile{lof}{\contentsline {figure}{\numberline {2}{\ignorespaces Mapas de Karnaugh para los l\IeC {\'\i }mites de los contadores\relax }}{2}\protected@file@percent }
\newlabel{fig:MapasKarnaugh}{{2}{2}}
\newlabel{fig:min9}{{3a}{3}}
\newlabel{sub@fig:min9}{{a}{3}}
\newlabel{fig:min6}{{3b}{3}}
\newlabel{sub@fig:min6}{{b}{3}}
\@writefile{lof}{\contentsline {figure}{\numberline {3}{\ignorespaces Secci\IeC {\'o}n combinacional del circuito\relax }}{3}\protected@file@percent }
\newlabel{fig:funcionesCombinacionales}{{3}{3}}
\@writefile{lof}{\contentsline {figure}{\numberline {4}{\ignorespaces Circuito F\IeC {\'\i }sico de trabajo\relax }}{4}\protected@file@percent }
\newlabel{fig:Circuito}{{4}{4}}
\@writefile{toc}{\contentsline {subsection}{\numberline {5.2}Se\IeC {\~n}ales}{4}\protected@file@percent }
\@writefile{lof}{\contentsline {figure}{\numberline {5}{\ignorespaces Reloj alimentando con Onda Cuadrada de 2[Hz] vista en el osciloscopio\relax }}{4}\protected@file@percent }
\newlabel{senial}{{5}{4}}
\@writefile{toc}{\contentsline {section}{\numberline {6}Cuestionario}{5}\protected@file@percent }
\@writefile{toc}{\contentsline {subsection}{\numberline {6.1}\IeC {\textquestiondown }Que es flip flops?}{5}\protected@file@percent }
\@writefile{toc}{\contentsline {subsection}{\numberline {6.2}\IeC {\textquestiondown }Qu\IeC {\'e} es un flip flop T?}{5}\protected@file@percent }
\@writefile{toc}{\contentsline {subsection}{\numberline {6.3}\IeC {\textquestiondown }Qu\IeC {\'e} es un flip flop j k?}{5}\protected@file@percent }
\@writefile{toc}{\contentsline {subsection}{\numberline {6.4}\IeC {\textquestiondown }Qu\IeC {\'e} es un flip flop d?}{5}\protected@file@percent }
\@writefile{toc}{\contentsline {section}{\numberline {7}Conclusiones}{5}\protected@file@percent }
