\babel@toc {spanish}{}
\contentsline {section}{\numberline {1}Seguridad en la ejecuci\IeC {\'o}n}{1}% 
\contentsline {section}{\numberline {2}Objetivos de aprendizaje}{1}% 
\contentsline {section}{\numberline {3}Material y Equipo}{2}% 
\contentsline {section}{\numberline {4}Introducci\IeC {\'o}n}{2}% 
\contentsline {section}{\numberline {5}Actividad de investigaci\IeC {\'o}n Previa}{2}% 
\contentsline {subsection}{\numberline {5.1}L\IeC {\'o}gica combinacional}{2}% 
\contentsline {subsection}{\numberline {5.2}L\IeC {\'o}gicos}{2}% 
\contentsline {subsection}{\numberline {5.3}Aritm\IeC {\'e}ticos}{2}% 
\contentsline {section}{\numberline {6}Desarrollo}{3}% 
\contentsline {subsection}{\numberline {6.1}Circuito}{3}% 
\contentsline {section}{\numberline {7}Cuestionario}{4}% 
\contentsline {subsection}{\numberline {7.1}\IeC {\textquestiondown }Qu\IeC {\'e} es un circuito combinacional?}{4}% 
\contentsline {subsection}{\numberline {7.2}Menciona 3 tipos de circuitos combinacionales}{4}% 
\contentsline {subsection}{\numberline {7.3}\IeC {\textquestiondown }Qu\IeC {\'e} es una funci\IeC {\'o}n combinacional?}{5}% 
\contentsline {section}{\numberline {8}Conclusiones}{5}% 
