\relax 
\catcode `"\active 
\catcode `<\active 
\catcode `>\active 
\@nameuse{es@quoting}
\babel@aux{spanish}{}
\@writefile{toc}{\contentsline {section}{\numberline {1}Seguridad en la ejecuci\IeC {\'o}n}{1}\protected@file@percent }
\@writefile{toc}{\contentsline {section}{\numberline {2}Objetivos de aprendizaje}{1}\protected@file@percent }
\@writefile{toc}{\contentsline {section}{\numberline {3}Material y Equipo}{2}\protected@file@percent }
\@writefile{toc}{\contentsline {section}{\numberline {4}Introducci\IeC {\'o}n}{2}\protected@file@percent }
\@writefile{toc}{\contentsline {section}{\numberline {5}Actividad de investigaci\IeC {\'o}n Previa}{2}\protected@file@percent }
\@writefile{toc}{\contentsline {subsection}{\numberline {5.1}L\IeC {\'o}gica combinacional}{2}\protected@file@percent }
\@writefile{toc}{\contentsline {subsection}{\numberline {5.2}L\IeC {\'o}gicos}{2}\protected@file@percent }
\@writefile{toc}{\contentsline {subsection}{\numberline {5.3}Aritm\IeC {\'e}ticos}{2}\protected@file@percent }
\@writefile{toc}{\contentsline {section}{\numberline {6}Desarrollo}{3}\protected@file@percent }
\@writefile{toc}{\contentsline {subsection}{\numberline {6.1}Circuito}{3}\protected@file@percent }
\@writefile{lot}{\contentsline {table}{\numberline {1}{\ignorespaces Tabla de verdad sistema giratorio\relax }}{3}\protected@file@percent }
\providecommand*\caption@xref[2]{\@setref\relax\@undefined{#1}}
\newlabel{cuadro:tabla}{{1}{3}}
\newlabel{funcA}{{1}{3}}
\newlabel{subfig:KarnaugA}{{1a}{4}}
\newlabel{sub@subfig:KarnaugA}{{a}{4}}
\newlabel{subfig:KarnaugB}{{1b}{4}}
\newlabel{sub@subfig:KarnaugB}{{b}{4}}
\@writefile{lof}{\contentsline {figure}{\numberline {1}{\ignorespaces Mapas de Karnaugh para las funciones $A$ y $B$\relax }}{4}\protected@file@percent }
\newlabel{fig:KarnaugAB}{{1}{4}}
\newlabel{funcB}{{2}{4}}
\@writefile{toc}{\contentsline {section}{\numberline {7}Cuestionario}{4}\protected@file@percent }
\@writefile{toc}{\contentsline {subsection}{\numberline {7.1}\IeC {\textquestiondown }Qu\IeC {\'e} es un circuito combinacional?}{4}\protected@file@percent }
\@writefile{toc}{\contentsline {subsection}{\numberline {7.2}Menciona 3 tipos de circuitos combinacionales}{4}\protected@file@percent }
\@writefile{lof}{\contentsline {figure}{\numberline {2}{\ignorespaces Circuito combinacional\relax }}{5}\protected@file@percent }
\newlabel{fig:circComb}{{2}{5}}
\@writefile{toc}{\contentsline {subsection}{\numberline {7.3}\IeC {\textquestiondown }Qu\IeC {\'e} es una funci\IeC {\'o}n combinacional?}{5}\protected@file@percent }
\@writefile{toc}{\contentsline {section}{\numberline {8}Conclusiones}{5}\protected@file@percent }
