\select@language {spanish}
\contentsline {section}{\numberline {1}Seguridad en la ejecuci\IeC {\'o}n}{1}
\contentsline {section}{\numberline {2}Objetivos de aprendizaje}{1}
\contentsline {section}{\numberline {3}Material y Equipo}{1}
\contentsline {section}{\numberline {4}Actividad de investigaci\IeC {\'o}n previa}{1}
