\relax 
\catcode `"\active 
\catcode `<\active 
\catcode `>\active 
\@nameuse{es@quoting}
\babel@aux{spanish}{}
\@writefile{toc}{\contentsline {section}{\numberline {1}Seguridad en la ejecuci\IeC {\'o}n}{1}\protected@file@percent }
\@writefile{toc}{\contentsline {section}{\numberline {2}Objetivos de aprendizaje}{1}\protected@file@percent }
\citation{A.HuergoLuis2018}
\citation{A.HuergoLuis2018}
\citation{A.HuergoLuis2018}
\@writefile{toc}{\contentsline {section}{\numberline {3}Material y Equipo}{2}\protected@file@percent }
\@writefile{toc}{\contentsline {section}{\numberline {4}Actividad de investigaci\IeC {\'o}n previa}{2}\protected@file@percent }
\@writefile{toc}{\contentsline {subsection}{\numberline {4.1}Suma Binaria}{2}\protected@file@percent }
\@writefile{lot}{\contentsline {table}{\numberline {1}{\ignorespaces Reglas de suma aritm\IeC {\'e}tica en binario\relax }}{2}\protected@file@percent }
\providecommand*\caption@xref[2]{\@setref\relax\@undefined{#1}}
\newlabel{sumaBinariaBasica}{{1}{2}}
\@writefile{toc}{\contentsline {subsection}{\numberline {4.2}Resta Binaria}{2}\protected@file@percent }
\@writefile{lof}{\contentsline {figure}{\numberline {1}{\ignorespaces Tabla de verdad Suma binaria\relax }}{3}\protected@file@percent }
\newlabel{fig:sumaBinaria}{{1}{3}}
\@writefile{toc}{\contentsline {subsection}{\numberline {4.3}Complemento a 1}{3}\protected@file@percent }
\@writefile{toc}{\contentsline {subsubsection}{\numberline {4.3.1}Complemento a 2}{3}\protected@file@percent }
\@writefile{toc}{\contentsline {section}{\numberline {5}Introducci\IeC {\'o}n}{3}\protected@file@percent }
\@writefile{toc}{\contentsline {section}{\numberline {6}Desarrollo}{3}\protected@file@percent }
\@writefile{toc}{\contentsline {subsection}{\numberline {6.1}Suma Binaria}{3}\protected@file@percent }
\newlabel{funcionBoolBin}{{1}{3}}
\newlabel{fig:diagramaFuncBool}{{2a}{4}}
\newlabel{sub@fig:diagramaFuncBool}{{a}{4}}
\newlabel{fig:xorHalfAdder}{{2b}{4}}
\newlabel{sub@fig:xorHalfAdder}{{b}{4}}
\@writefile{lof}{\contentsline {figure}{\numberline {2}{\ignorespaces Propuestas Medio Sumador\relax }}{4}\protected@file@percent }
\newlabel{fig:diagramaMedioSumador}{{2}{4}}
\@writefile{toc}{\contentsline {subsection}{\numberline {6.2}Diagrama L\IeC {\'o}gico}{4}\protected@file@percent }
\@writefile{toc}{\contentsline {subsection}{\numberline {6.3}Circuito}{4}\protected@file@percent }
\@writefile{lof}{\contentsline {figure}{\numberline {3}{\ignorespaces Sumador Completo\relax }}{5}\protected@file@percent }
\newlabel{fig:diagramaSumadorCompleto}{{3}{5}}
\@writefile{lof}{\contentsline {figure}{\numberline {4}{\ignorespaces Diagrama L\IeC {\'o}gico sumador Restador\relax }}{5}\protected@file@percent }
\newlabel{fig:DiagramaCircuito}{{4}{5}}
\@writefile{toc}{\contentsline {section}{\numberline {7}Cuestionario}{5}\protected@file@percent }
\@writefile{toc}{\contentsline {subsection}{\numberline {7.1}\IeC {\textquestiondown }Qu\IeC {\'e} es un sumador?}{5}\protected@file@percent }
\@writefile{lof}{\contentsline {figure}{\numberline {5}{\ignorespaces Circuito F\IeC {\'\i }sico de Sumador Restador\relax }}{6}\protected@file@percent }
\newlabel{fig:circuitoFisico}{{5}{6}}
\@writefile{toc}{\contentsline {subsection}{\numberline {7.2}\IeC {\textquestiondown }Qu\IeC {\'e} es un restador?}{6}\protected@file@percent }
\@writefile{toc}{\contentsline {subsection}{\numberline {7.3}\IeC {\textquestiondown }Qu\IeC {\'e} es un medio sumador o semisumador? }{6}\protected@file@percent }
\bibstyle{plain}
\bibdata{Referencias.bib}
\bibcite{A.HuergoLuis2018}{{1}{}{{}}{{}}}
\providecommand\NAT@force@numbers{}\NAT@force@numbers
\@writefile{toc}{\contentsline {section}{\numberline {8}Conclusiones}{7}\protected@file@percent }
