\relax 
\catcode `"\active 
\catcode `<\active 
\catcode `>\active 
\@nameuse{es@quoting}
\babel@aux{spanish}{}
\@writefile{toc}{\contentsline {section}{\numberline {1}Seguridad en la ejecuci\IeC {\'o}n}{1}\protected@file@percent }
\@writefile{toc}{\contentsline {section}{\numberline {2}Objetivos de aprendizaje}{1}\protected@file@percent }
\citation{BolanosD.2015}
\citation{RualthGustavoBravoAnaya1891}
\citation{RualthGustavoBravoAnaya1891}
\@writefile{toc}{\contentsline {section}{\numberline {3}Material y Equipo}{2}\protected@file@percent }
\@writefile{toc}{\contentsline {section}{\numberline {4}Introducci\IeC {\'o}n}{2}\protected@file@percent }
\@writefile{toc}{\contentsline {section}{\numberline {5}Actividad de investigaci\IeC {\'o}n previa}{2}\protected@file@percent }
\@writefile{toc}{\contentsline {subsection}{\numberline {5.1}Ley de Ohm}{2}\protected@file@percent }
\@writefile{toc}{\contentsline {subsection}{\numberline {5.2}Primera ley de corrientes de Kirchhoff (L.C.K.)}{2}\protected@file@percent }
\@writefile{toc}{\contentsline {subsection}{\numberline {5.3}Segunda ley de tensiones de Kirchhoff (L.T.K)}{2}\protected@file@percent }
\@writefile{toc}{\contentsline {section}{\numberline {6}Desarrollo}{3}\protected@file@percent }
\@writefile{toc}{\contentsline {subsection}{\numberline {6.1}Circuito}{3}\protected@file@percent }
\@writefile{lof}{\contentsline {figure}{\numberline {1}{\ignorespaces Circuito de trabajo con resistores\relax }}{3}\protected@file@percent }
\providecommand*\caption@xref[2]{\@setref\relax\@undefined{#1}}
\newlabel{fig:Circuito}{{1}{3}}
\newlabel{fig:VoltCorr}{{2a}{3}}
\newlabel{sub@fig:VoltCorr}{{a}{3}}
\newlabel{fig:ResComp}{{2b}{3}}
\newlabel{sub@fig:ResComp}{{b}{3}}
\@writefile{lof}{\contentsline {figure}{\numberline {2}{\ignorespaces Tablas de experimentaci\IeC {\'o}n\relax }}{3}\protected@file@percent }
\newlabel{tablas}{{2}{3}}
\@writefile{lof}{\contentsline {figure}{\numberline {3}{\ignorespaces Circuito de trabajo sostenido\relax }}{4}\protected@file@percent }
\newlabel{fig:CircuitoSostenido}{{3}{4}}
\@writefile{toc}{\contentsline {subsection}{\numberline {6.2}Se\IeC {\~n}ales}{4}\protected@file@percent }
\@writefile{lof}{\contentsline {figure}{\numberline {4}{\ignorespaces Se\IeC {\~n}al Senoidal de 1[KHz] vista en el osciloscopio\relax }}{4}\protected@file@percent }
\newlabel{senial}{{4}{4}}
\newlabel{subfig:KarnaugA}{{5a}{5}}
\newlabel{sub@subfig:KarnaugA}{{a}{5}}
\newlabel{subfig:KarnaugB}{{5b}{5}}
\newlabel{sub@subfig:KarnaugB}{{b}{5}}
\@writefile{lof}{\contentsline {figure}{\numberline {5}{\ignorespaces Mapas de Karnaugh para las funciones $A$ y $B$\relax }}{5}\protected@file@percent }
\newlabel{fig:KarnaugAB}{{5}{5}}
\@writefile{toc}{\contentsline {section}{\numberline {7}Cuestionario}{5}\protected@file@percent }
\@writefile{toc}{\contentsline {subsection}{\numberline {7.1}\IeC {\textquestiondown }Para qu\IeC {\'e} sirve el osciloscopio?}{5}\protected@file@percent }
\@writefile{toc}{\contentsline {subsection}{\numberline {7.2}\IeC {\textquestiondown }Qu\IeC {\'e} hace un generador de funciones?}{5}\protected@file@percent }
\@writefile{toc}{\contentsline {subsection}{\numberline {7.3}Menciona 3 reglas para un buen uso de equipo de laboratorio.}{5}\protected@file@percent }
\bibstyle{plain}
\bibdata{Referencias.bib}
\@writefile{toc}{\contentsline {section}{\numberline {8}Conclusiones}{6}\protected@file@percent }
\@writefile{toc}{\contentsline {subsection}{\numberline {8.1}Circuito}{6}\protected@file@percent }
\@writefile{lot}{\contentsline {table}{\numberline {1}{\ignorespaces Tabla de verdad sistema giratorio\relax }}{6}\protected@file@percent }
\newlabel{cuadro:tabla}{{1}{6}}
\@writefile{toc}{\contentsline {section}{\numberline {9}Referencias}{6}\protected@file@percent }
