\babel@toc {spanish}{}
\contentsline {section}{\numberline {1}Seguridad en la ejecuci\IeC {\'o}n}{1}% 
\contentsline {section}{\numberline {2}Objetivos de aprendizaje}{1}% 
\contentsline {section}{\numberline {3}Material y Equipo}{1}% 
\contentsline {section}{\numberline {4}Actividad de investigaci\IeC {\'o}n previa}{2}% 
\contentsline {section}{\numberline {5}Introducci\IeC {\'o}n}{2}% 
\contentsline {section}{\numberline {6}Desarrollo}{2}% 
\contentsline {subsection}{\numberline {6.1}Circuito}{2}% 
\contentsline {subsection}{\numberline {6.2}Se\IeC {\~n}ales}{3}% 
\contentsline {section}{\numberline {7}Cuestionario}{4}% 
\contentsline {subsection}{\numberline {7.1}\IeC {\textquestiondown }Que se entiende Como un biestable? }{4}% 
\contentsline {subsection}{\numberline {7.2}\IeC {\textquestiondown }En que consta una configuraci\IeC {\'o}n d biestable maestro esclavo?}{4}% 
\contentsline {subsection}{\numberline {7.3}\IeC {\textquestiondown }En qu\IeC {\'e} consiste una configuraci\IeC {\'o}n de estable tigger?}{4}% 
\contentsline {subsection}{\numberline {7.4}\IeC {\textquestiondown }Qu\IeC {\'e} configuraci\IeC {\'o}n tiene un flip flop RS?}{5}% 
\contentsline {section}{\numberline {8}Conclusiones}{5}% 
