\relax 
\catcode `"\active 
\catcode `<\active 
\catcode `>\active 
\@nameuse{es@quoting}
\babel@aux{spanish}{}
\@writefile{toc}{\contentsline {section}{\numberline {1}Seguridad en la ejecuci\IeC {\'o}n}{1}\protected@file@percent }
\@writefile{toc}{\contentsline {section}{\numberline {2}Objetivos de aprendizaje}{1}\protected@file@percent }
\@writefile{toc}{\contentsline {section}{\numberline {3}Material y Equipo}{1}\protected@file@percent }
\@writefile{toc}{\contentsline {section}{\numberline {4}Actividad de investigaci\IeC {\'o}n previa}{2}\protected@file@percent }
\@writefile{toc}{\contentsline {section}{\numberline {5}Introducci\IeC {\'o}n}{2}\protected@file@percent }
\@writefile{toc}{\contentsline {section}{\numberline {6}Desarrollo}{2}\protected@file@percent }
\@writefile{toc}{\contentsline {subsection}{\numberline {6.1}Circuito}{2}\protected@file@percent }
\@writefile{lof}{\contentsline {figure}{\numberline {1}{\ignorespaces Circuito de trabajo con resistores\relax }}{2}\protected@file@percent }
\providecommand*\caption@xref[2]{\@setref\relax\@undefined{#1}}
\newlabel{fig:Circuito}{{1}{2}}
\newlabel{fig:sec0}{{2a}{3}}
\newlabel{sub@fig:sec0}{{a}{3}}
\newlabel{fig:sec1}{{2b}{3}}
\newlabel{sub@fig:sec1}{{b}{3}}
\newlabel{fig:sec2}{{2c}{3}}
\newlabel{sub@fig:sec2}{{c}{3}}
\newlabel{fig:sec3}{{2d}{3}}
\newlabel{sub@fig:sec3}{{d}{3}}
\newlabel{fig:sec4}{{2e}{3}}
\newlabel{sub@fig:sec4}{{e}{3}}
\newlabel{fig:sec5}{{2f}{3}}
\newlabel{sub@fig:sec5}{{f}{3}}
\newlabel{fig:sec6}{{2g}{3}}
\newlabel{sub@fig:sec6}{{g}{3}}
\newlabel{fig:sec8}{{2i}{3}}
\newlabel{sub@fig:sec8}{{i}{3}}
\newlabel{fig:sec9}{{2j}{3}}
\newlabel{sub@fig:sec9}{{j}{3}}
\newlabel{fig:sec10}{{2k}{3}}
\newlabel{sub@fig:sec10}{{k}{3}}
\newlabel{fig:sec11}{{2l}{3}}
\newlabel{sub@fig:sec11}{{l}{3}}
\newlabel{fig:sec12}{{2m}{3}}
\newlabel{sub@fig:sec12}{{m}{3}}
\newlabel{fig:sec13}{{2n}{3}}
\newlabel{sub@fig:sec13}{{n}{3}}
\newlabel{fig:sec14}{{2\~n}{3}}
\newlabel{sub@fig:sec14}{{\~n}{3}}
\newlabel{fig:sec15}{{2o}{3}}
\newlabel{sub@fig:sec15}{{o}{3}}
\@writefile{lof}{\contentsline {figure}{\numberline {2}{\ignorespaces Contador con display de 7 Segmentos y 4 LED\relax }}{3}\protected@file@percent }
\newlabel{fig:contadorSegmentos}{{2}{3}}
\@writefile{toc}{\contentsline {subsection}{\numberline {6.2}Se\IeC {\~n}ales}{3}\protected@file@percent }
\@writefile{lof}{\contentsline {figure}{\numberline {3}{\ignorespaces Se\IeC {\~n}al cuadrada de Reloj para contador\relax }}{4}\protected@file@percent }
\newlabel{SenalCuadrada}{{3}{4}}
\@writefile{toc}{\contentsline {section}{\numberline {7}Cuestionario}{4}\protected@file@percent }
\@writefile{toc}{\contentsline {subsection}{\numberline {7.1}\IeC {\textquestiondown }Que se entiende Como un biestable? }{4}\protected@file@percent }
\@writefile{toc}{\contentsline {subsection}{\numberline {7.2}\IeC {\textquestiondown }En que consta una configuraci\IeC {\'o}n d biestable maestro esclavo?}{4}\protected@file@percent }
\@writefile{toc}{\contentsline {subsection}{\numberline {7.3}\IeC {\textquestiondown }En qu\IeC {\'e} consiste una configuraci\IeC {\'o}n de estable tigger?}{4}\protected@file@percent }
\@writefile{toc}{\contentsline {subsection}{\numberline {7.4}\IeC {\textquestiondown }Qu\IeC {\'e} configuraci\IeC {\'o}n tiene un flip flop RS?}{5}\protected@file@percent }
\@writefile{toc}{\contentsline {section}{\numberline {8}Conclusiones}{5}\protected@file@percent }
