<?xml version="1.0" encoding="UTF-8" standalone="no"?>
<!-- Created with Inkscape (http://www.inkscape.org/) -->

<svg
   xmlns:dc="http://purl.org/dc/elements/1.1/"
   xmlns:cc="http://creativecommons.org/ns#"
   xmlns:rdf="http://www.w3.org/1999/02/22-rdf-syntax-ns#"
   xmlns:svg="http://www.w3.org/2000/svg"
   xmlns="http://www.w3.org/2000/svg"
   xmlns:xlink="http://www.w3.org/1999/xlink"
   xmlns:sodipodi="http://sodipodi.sourceforge.net/DTD/sodipodi-0.dtd"
   xmlns:inkscape="http://www.inkscape.org/namespaces/inkscape"
   width="210mm"
   height="297mm"
   viewBox="0 0 210 297"
   version="1.1"
   id="svg8"
   inkscape:version="0.92.1 r15371"
   sodipodi:docname="esquema.svg">
  <defs
     id="defs2" />
  <sodipodi:namedview
     id="base"
     pagecolor="#ffffff"
     bordercolor="#666666"
     borderopacity="1.0"
     inkscape:pageopacity="0.0"
     inkscape:pageshadow="2"
     inkscape:zoom="0.71"
     inkscape:cx="377.09454"
     inkscape:cy="606.15019"
     inkscape:document-units="mm"
     inkscape:current-layer="layer1"
     showgrid="false"
     inkscape:snap-global="false"
     showguides="false"
     inkscape:window-width="1366"
     inkscape:window-height="703"
     inkscape:window-x="0"
     inkscape:window-y="36"
     inkscape:window-maximized="1" />
  <metadata
     id="metadata5">
    <rdf:RDF>
      <cc:Work
         rdf:about="">
        <dc:format>image/svg+xml</dc:format>
        <dc:type
           rdf:resource="http://purl.org/dc/dcmitype/StillImage" />
        <dc:title></dc:title>
      </cc:Work>
    </rdf:RDF>
  </metadata>
  <g
     inkscape:label="Capa 1"
     inkscape:groupmode="layer"
     id="layer1">
    <image
       y="188.74762"
       x="90.298515"
       id="image4493"
       xlink:href="data:image/png;base64,iVBORw0KGgoAAAANSUhEUgAAAJIAAACQCAYAAADjszKFAAAABHNCSVQICAgIfAhkiAAAHqxJREFU eJztnXdYFFcXxt+lLL1ItYJf8tlbVOyg0S9RsVAUEFA0RmMs2DVYMIoUNcaOFHuaJYlKFbCDiCJg A1QUFFBRYJW6FIGd7w/ckdVlgd2Z3Vnc3/PkiXfuzJkzcLhz5973nssiCIKAAgUSoiRrBxS0DhSB pIASFIGkgBJUZO1Ac3n79i08164Dl1tOqd26ujrk5ubC3NwcSkrN/7vicDhQVlJCGwMDSv1RUlLG spUr0K9fP0rt0o3cBFJyUhLOx8TQZj/vZR5ttltK127dFIFEFzweDwAw1cEB7ksWU2Y3NzcXs2a4 4a8Tx9G+Q4dmX/fzek/o6eth5erVlPly9cpVeG3cCHn8kJabQOKjo6uDTmZmlNmrqa0FALRr375F djU0NaGlrU2pL4aGhpTZkjaKzrYCSlAEkgJK+OwDSUdHBwBQVlbWousqKrjQ1NSiwyW55LMPJAMD A2hoaODp06ctuu5p1lN07NiRJq/kj88+kJSVlTHC0hLnIiKbfc3tlBTk5eXBatRIGj2TLz77QAKA 7+fOwcULF3Dzxo0mz62trcVWvy34evRofPHFF1LwTj5g7Oe/57p1uB5/nSxXVFQABFBaUkr5vQYP GQIHJycsWeSOw8eOoU/fPkLPe/fuHdZ6eOBpVhbOhIZQ7geff06dwoXz58mypqYG/j1zBhqamrTd U1IYG0gP0tPRpWsXjBnzPwBAeloaThw/Di0dbVrut9nHG1xuOZwdHTFr9ndwdnGBmbk5AKCqqgpX r1zBvj17UFhQiAOHD5F1dNCnbz9MmDgBAPDqVR727/NHWXn55x1IEeHhGDpsGIyMjD6p81i1GiUl JQg8EAwWi/VJfe/efeDs6gIAiI6Kwonjx6HcgvmwlqCqqoo9+/bh9L//wn/vPhwICoaenh40NDXA KeSAxWJhso0NVh5bBdO2bWnxgU/3Ht3J536Qno79+/yFnvfPqVN49uwZflqzRuD4sSNHUVVVifkL F9LqZ0No6yMRBIG01FSsWf0T3r55+0n9i+fPcS4yErcSE5F6P5Wy+1ZWVuLvk6fEupbFYsHB0RFX 4mIRfi4SP3ttwtJlyxB86CCS7tzGLzt+bXEQifLnevx13EpMFMtXAOjdpw9+P/YbKrgV5DGCIPDn H7/jv126iG1XHGhrkRbNX4AbCQmoqqoSWh8aEopvvv0W6urqCA8NRd9+fSW+5+OMxzh29AgKCwrh 5DxNbDssFgs9evZEj549afPn9avXWLJoEdyXLsHgIUPEst+9Rw90MjPDpUsXMdnGBgCQkZGBN5w3 GDlqlES+txTaWqSA4CDcSb0v9C+YIAiEhYTA1t4OEydPQkR4OOrq6iS+5z9//43CgkKJ7VBFY/7U 1dVhzU8/wWLwIInss1gs2NrbITwsjDwWfe4cxltbg81mS2S7pcjk8/9BejqKiopgaWWFYcOGo7au Fok3b0psd/0GT/y4YAEFHlJDY/4EBQRi5KiR6NWrl8T3sLWzQ3zcNRQXFwMAoqOiMel96wQA1dXV 8PPxxcTx4zFy+AisWrGCPFdUXUuRSSCFhoRCW0cHW/38sMXPF9raOggPDWv6wlbA7ZQU3E5JwXff f0+JvXbt2qH/gAE4Hx2DrMxMFBcVYejQoWT9End3sFVVcTokBJfjYqGuro6fPT2brGspUg+kuro6 RISFwdbOluyH2E+ZguioKFRXV0vbHakTHBSE6upqLF+yFFHnonDm39M4c/q0RDbt3r/eoqOiMWHS RCirKAMAHj54gNycXKxYvQrq6upQUVHBqp9+gq6uLtJSUxutE6ebIfVxpJs3boLH48F98RLygevq 6nD8zz8Re/Uqxo4bJ22XpIrnhg0oL6+XCx//8y9oaWthxIgREtkcZ22NzZu88Pz5c+zas5s8nno/ FYOHDBGQEOvr68PHzw9/nzzVaJ04SL1FCgsJwcTJk8ggAurnu8ZPmICw0FBpuyN1OpmZkS2xsYkx TNu2lXhcSldXF6NGfw2Cx8NX/fuTx7nccqirqwu9RlSdONDeIl2/KTh/te3X7ULP27TZi5L7WQyy gMWgw5TYogJR/ixZtoyy+/gHBHxyzLzzfxB79arAMYIg4OzoBFt7O2Q8eii0bs++fWjbrmXBzdgp EgBIuB6P6ur6cSi+zOPdu3eydEkqJCfdwvZt2wAAnEKO2HasRlrBZ/NmXLxwAd98+y0A4OKFCygu KoKDoyMOHTgotM60rWmL78XYQBo7bhxuJCQgLbV+1JvDeVP/fwl+sPLCi+cvyOcGgPETrKGvr99i O6qqqjhw6CBWLFsO/737oKGhDk4hB7v27gGbzW60Tth0VZMQckJEeDjxpXlnYsG8H2XtCm1EhkcQ X5p3Jn6YPYdy2xwOh3jx4gVRV1fXorrmwtgWSQG1iFqhQsXqFcYG0pPHj5H5JJMs37lzR4beSJf8 wgJERZ4jyzq6urC0spShR03D2EBa67EGjx4+hJqaGgCgpqYGAKDJYE0OVWQ+fgzPdesA1I+xlZeX 49btFBhQvDycSmgfR4oIDweH86GDfCAoGBs9N3xyXlBAALZt2UKWebw6zJs/Hyn37iLl3l38suNX AIB+m5Z3OuWN6W5u5HMfP3USQL3EtzFuJSYiODAIVy5f/mSVrseq1Zj/wzzaV+9KXY9ka2eL0JAQ XL50mTyWlZUF/737YGtvT5c7rZbgwCB4b/JCVVUlfL29EeC/n6yjS/MlDKnrkUzbtsXqNR7YvGkT ho8YDjU1Nfh4bYbbrJno3r27RPfMfpaNyIgIAMBkm8m0ymGbS2VlJcJDwwT0SA/S03HxwgWoqanD fuoUmJiYiGW7pKQEBw8cwMUrl6Gvr4+x48bht6PHyHo6NF+NIRM9kourK4yNjREcGIjLFy8h88kT LF6yVKL7FRQUwHXaNLRt1xaamhqY5uCI57m5EtmUlMcZj+Ht5SUg5M/KysK8uXNhYmKK6upqOE2Z Svb/WsqNhAQya8mtxEQYGBhg6/ZfANCn+WoMmXS2lZSU4Ld1Cxzsp0BXVxcbN3tBU0uyTnRcbCwG DxmCqQ4OAOp/ideuXYPr9OlUuCwWwoRtd27fhtO0aaQmOzTkLPJfv0bHTp1abL8gvwCvXuXBddo0 mJmZ43ZKCpavWgkXV1cBzRcLLFLzNVzCCeLGkNlXW5euXTHV0QEPHzwgh+glYbKNDSk35XK5uH// Hqa7zZDYriSs3+CJ5KRkBAcGksccHB0BAEm3khB75Qo6derUonQ6DampeYey0jLEXLwITS1NPM54 jCm2tnBwdBTQfAEgNV90BZJMF0iamJrCxKTl8zrCUFNTg5qaGuJiY+E4ZQpmzJyJ3n2Er09jAkVF b5GdnQ01dXVUVlaKZcPYxATde/QgW/MuXbuAIAgUFBRIXfPValbaEgSBzZs24dCBg/APDISLq6us XRLKo0ePUFhYiLHjxsE/sH7G/np8vFi2RlhaIvX+feTl1Webi4uNhX6bNnj29Cmp+Zrq4ICpDg5Y tNgdampqn6gBqIKxA5It5XxMDHKyc3D099+grKzc9AUy4nx0DEpKirFh40bweDzkvXgJbW3xFn0a Ghpi+cqVsJkwER06dgSHw8HO3btw5t/TIjVfdIgHpa5Hash8CoX6N2/cwK3ERAyx+LAyY+36dWTn mynMmOmGma7TYTNxEoqLimA50grDhg8X2940F2fYTbHH61ev0bFjRyirKGNIA812Q6jSfAmj1bRI G728sNGLvh+UuHwsbDMwMEDYuUgU5BdAS1uLzM8kCWpqajDvLNsxM8YGkrKyCvbu3o29u3cLHH9b VCQjj6hDSUlJpALxyKFDOHLokMAxFRXG/qoAMDiQft25Ey9evCDLiTdvIMB/P6oqxPvCkSe+6t8f y1euJMuamhqMnrAFGBxI5p3NBZrr4mL5b4mai0EbA4ywpGe8hy5azee/AtnC2BZpi6+fwDLukpIS AIA4cmJ5IynpFuwmf1h2raGhgaO//0bp8iGqoS2QqqurcS4iEq9fv0LvPn3q53w+igJR+ZGSbiVC X18Pw4bXN/GPMzLwPDcXxsbGdLnMGLp174HRY0YDAAoK8vHb0WMoLS1ldCDR8mqrq62Di5MTLpw/ j5qaWnht3AivjZsEzmmOVmbAQAv8uGA+flwwH9+OGwsAUFFVpcNlRtG3X1/yuZszDvaxsK254kEq oaVFSkq6heLiEvx79iyUlJQw3W0Ghg8egtUeP0FLqz43NR1aGap0PlQiTI9EpW4qODAIEWFh+Gbs t/D19saD9AdwcHTAuG++xajRozHmf2MAfBAP/htyVrIHagRaWiQjIyOs9/Qk15XX1tSQiQoAerQy VOp8qEKYHolK3RRf2PbHieNYunw59u3fj+e5uQLiwaqqKhAEQZl4sDFoaZH+26ULmXru5cuXcF+w ADO/+44U8tOhlaFS50MVwvRIVOqmPha2mZubk8I2F1dXhJw5i+DAQPTu3QeZT55gfwM5C9XQ1tmu ra1FUEAg/vrjDyxZvkxgNp4OrQyVOh+qEKZHolI3JUrYRod4UBS0BFJdXR3m/zAPbDYbUedjoN+m jUBdRFgYprk4k62Frq4ejh4+jE3em8lWS1w+1vnw+2RMgf98cbGx2OrnB7dZs8TWTYkStqmqqlIu HhQFLYF05fJl5OW9xD9nzoAFFpl1VUNTg7b8SI8ePYKhoSHGjhuHsePG4ccffsD1+HjG5VsiCALe Xl7IfJIJ/8BAiXYPaEzY9obzhpzLMzE1xZv3eRPohJbO9p3bt/E44zH69eqNvr16kf8VFxXTlh/p fHQMgt6ndpFU50MnDXVTkm5B0ZiwzcRU+l+rtLRIqz08sNrDQ2gdXfmRqNb50AWVuqnGhG0t2eSZ Khg7RdJS6ND5UMHHeiSqdVPChG0NoVI8KApGB9LlS5dQUJAPAHj+/DkAiBSvN6XzkRcSrseTa/+L 3jatelAI20Qwbrw1Eq7Hk4N1/ERb0ug4ypqC/AKBQUrriRPQpsGXLxNhbCDx55r4REZEYKk7ddu0 M5mvvuqPA0cONX0ig1DokRRQAmNbpGtxcXiQ/oAsf5yBtTWTm5uD4MAgsqytrQXXGTPEy+0oJRgb SLt37MSr16/JGXy+sE1XT1eWbkmF4uISRJ2rz9hWWVmJrMxMjB0/ntFaLKkL2w4EBePlixfw8vEW OD8oIAAlJSXwWLsWAECAgLOLC5Ysq89SEh0VBfcFCxk5yEg1Nna2WOe5HkD9BLfNxEmNJspKunUL +fn5ZNnY2FhgXVtTmytShdSFbdJItCXphnpU0tjGf5JsUNgQX28fHP/zL4SeDUHo2RDcSEgg6+Q+ 0ZYoYRudibYAajbUo4rGNv6jaoNCgiCQk52NazcShLbUcp9oqylhGx2JtgDqNtSjisY2/qNqg8Ki oiIoKysjNCQE3l5eCD0bAh6PB6CVJNpqSthGl1aGv6Eef/chWSNMjyTqeEvJfvYMZWVlePUyD926 dcfhQ4dw61YifLdsaT2JtkQJ2wDqE23xN9Q7eOQw/PfuldiePNCjZ0/E37xBfs2NHDUKVsOHY73n Bqkn2pK6sK0hVGplGm6o9/jxY6ioqEBPTw9Tpk6lxD4TKS0pEfgSM21rCjabjbKyUlrFg8KQurCN rk9QOjbUYzpJSUnYtWMHIqKioKGhgUsXL6J9+/Z48iRT6psr0hJIDYVtDUm6fRttDOiZfOxkZkb+ 29jEGDq6uhJvqMd0rCdMwNUrVzDUYhDMzM1RXl6OPfv24a8//pB6oi3G7o5kb2ND7Nm1myxHnTtH fGnemfD28pKhV/TC3x3J19uHPJaelkZ8ad6ZyM/Pb/Q6DodD5ObkSLS7kaQwdooEAAoLCsh9y2Sd M1uacDiF5HPzNzwUhaGhISU7HEkCYwNJT08fJ44fx4njxwWOv36d38gVrYewkFCEhXzQr6upqUFD Q0OGHjUNYwPp0JHDKOdyyXJMdDTWeawBj8ZBNaYw8utR2LVnD1lWU1NjdAIJgMGBpPz+850P09an 0YmKkuCzywOMDaTa2lpwG7RIDf/d2qnl1ZKyGQBgs9mKV5u4zJ39PeKvXfvkuDLDk3JSQdzVWAzs 9xVZVlNTw83kJMasjBEGbb+V0tJSREZEoKSkBAMHWmCQkIlUUVqZ0tISuLi6YpqLM4D6hAnbtmyF qQwW/0kbGztbfD9nDoD6r7YVS5ehsrJSaCAJ0yPdu3uvWZovKqElkCorKmAzcRIsrSxhaGiIpe7u WLxsqcB8G18ro6qqitT7qUIlDsYmJuS6+IYZbhsjLDRUYMLWfsoUmb8ShOVHyn/9GiFnQ6Cmpoap jg6fBIiRkTH53E0tdvT19oGmpibZh+zVuxdcXF2lnh+JlkCKjY2FGpsNn/cThu3bd8DZM6c/yUhC pVaGIAj4efvAydmZPMaXVMgKYbqj6upqzHBxhdusWSguLsLc2d/j5D9/izV1RIjQI9Gp+RIGLYE0 YMAABBwIBgC8e/cOhYWFAnmKiPdambWe66GiooLVK1Zizfp1Eu0hUlhQgPYd2mPFqpVNnywlhOmO rly+jI6dOmHmd7MAAOGhYXj44AF69urVYvsN9UhPs7LQt28/TLa1gZKSUuvIj2RiagoTU1NcvHAB i+YvgL6+PiJjosl6OrQy2dnZePvmLWZOn4GXL19gqoMDFrq7U/E4YiNMd/Ts6VNSqwXUy2mePXsm ViCJ0iO1ivxIfEaPGYPLcbE4/uefWLxwEU78Xa9RpkMro6Wlhdlz5sBt1kxwuVw4Ozqi/4ABjEsk weVWwNDow3SGgaEBysvEE+KJ0iNpamlKNT8SLVLbmOhoxF69CmVlZXTo0AGL3BcjOSkJ1dXVZKIt qjel69W7N2bN/g5KSkrQ0dHB16NH49FD5q2FMzQyRM6zbLL87OkzgcBqCaUlJSAa9AP5eiRuxYcx Nyo3VxQFLYHE5XIRFBBA7lUfH38NHTt1qh8PaZBoi8pN6Y4eOQI/H18A9X2w9LQ0dO1GT8dSEoYO HYr79++Bx+OhqqoK2dnZ6D9ggFi2kpKS4DJtGrkDJV+PZGRkRKXLzYKWV5uNrS1ioqMxytIKRkZG ePvmDXbuqd/lqKlEW+JqZaY6OGD2zFmYYmuLd9XvMHjoEAwfwazXGlD/Oho2fDicHZ1QVVWFuT/M FXvmvjE9kkxW5NKlT+HxeERBQQGRk51N1NbUtvh6cfRIPB6PeJX3iigrKxPLZ2lSXFxMcMu5AscU eiQhsFgsqS8xZrFYcpMficpJWYUeSQQssHDyxAlcvnQJwIe1/2VlZbJ0SyqEhYSSK4X5/R8mJ5AA GBxIy1etRHpaOlnOePQQz3NzUVba+gNJX18P1hMmkGVtHW2ZdKBbAmMDydLKCpZWVmQ5MiICYaFh MvRIepiZmQskGZMHFIm2FFACY1uk2KtX8ejhI7L8OSfa0tTUxHS3GTJJe9xcpK5Ham5+pL27dgtN tKXzmSbaGj/BWuRXcE1NDQ4GB38yvyjX+ZH4eqT0tDRUVlRgqbs7uRqkufmR+Im2QsLDEBIeBo+1 awAAOp9Joi3+c+96P5BLNJJoi8/unTuxZ5fg1vZynx9JlB6JzvxIFdwKhIaGoLCgALZ29jLPPd0Y WVlZiIo8B21tbdhNsYe+vr5E9m4kJCAuNu6T43KfH6kpPRId+ZEIgsCc2bPBKeTAwMAArs7OKC0t lcgmHWQ+eYLvZrihTRt9cDgcuLm4SiTAK3pbBK+Nm7Bl21aB40RryI/UlB6JDq3MrcRE6OrpYvHS JQDqW8EKbgV0dZnVpwoNCYX91KmY7uYGoD4dT0pyMgYNHtxiWwRBYI3HT1i02B0dOnQUqJN2fiRa PwP4eiQHJ0csXrhIoI6vlenYqSMlWpm01FSYmZnD19sHq1asgJq6OiOnS1RVVVFSXAygPhBKSoqR k5Mjlq2TJ05AV1eX3EiwIQ01X1v8fEnNF11IXY/UECq1MkVFxQgPDcWAAQMw3toaq1euRMajDEps U4mzizPi4uKwaP4CODs6obq6Grw68V5tt1NScD46Bv379MXXVlaoq6tD/z59cSsxkRbNlyhoebVx uVwcO3IEIywtoaKiIqBHogs9PT2MnzAB1hPrpxbirsbiRkICunXvRts9xcHE1BSRUVFIS0tF+w4d sOOX7WK3nNt37MD2HTsA1PeVhg4ahDup93E9/rrU8yPR0iLZ2NpCV08PoyytYDtpMrw3eeGXRvZp o4r+AwYg9d491NXVgcfjIT09HZ1kuDFyY9xISMC2rVsxeMgQaGtp4e7du2L1j0RB1+aKoqClRVJR UUHQgQPgcDiorKhAhw6f7iMGULuX2ECLgejRqyf+N+prgMWCxSALjH6/potJDLSwQID/fkyxtQW3 nIs169ZSsvaujUEbZGRlAqBvc0VRtBo9EovFgo+fH0pLS8Hj8SQem6ELNpuN3//6E/mv82FkbESm jJZ3GP0Uz5/n4nr8dQAQmHcTBdM+94XRlAAv72Ue+dw5OdlS8koyGBtI+vptcPb0GZw9fUbgeMN1 7q2V6KhziI46R5bV1dVlvvS8KRgbSAePHBZYx89PtFVXq0i0xUQYG0jKysqKRFtyBGMDSZFoq0Gi LVVVaGjSt9yaCloUSHGxsTh6+AgepKdDR1cHo0ePwaIli8kvpOKiIvz4wzwsdF+EUV9/TV6XkpyM 0LMh2Ozrg9kzZ6Gioj6BO5vNRo+ePTF7zvdo166dwL3mzp6N+Gvxn/jwOSbaYrPZSExJZnSirWYP SP5z6hR+WrkKjk5OiL5wAcGHDiEvLw8/fD+HnFWuqa1FSnIyPNeuE2hBSkpKkZFRP11x984dOLu4 YO36dZg3/0fU1LyD7cRJePF+O3Y+paWl9Rk1PtIjfS6JtvjPvXPPbrx7945cTdIYNTU1CPD3B1Av HtzoueGTc4ICArBtyxZafG7Wn3dZWRm2bdmKoIMHYTHIAkD9ANge/32wmzQZ9+/dI5cds9lsDBg4 EDu2b8fPmzYJtde9R3f06NkTAGA1ciRqa2qxf58/tvyyTeC8liTaunfvHtLT0gSOdevWDQMtLJrz iFIlJzsHYaGhYLPZsJ86hVSB8mlJoi0+u3fuxKEDB7HQ3R22drZST7TVLC9TkpNh2taUDCI+Kioq iIiO+mTt+oZNGxEeFoa7d+40y4nJtja4efNmM10WTllpGV6/ek3+9/fJU7h3965ENumgID8fLk5O 0NfXB49XBwc7e1RVVUlk82NhW0PxYFVVFQiCYEairdycXJibdybLHA4Hv2z5IKQa883/MN7amiwb GRnBY+1arPVYg7DIiCbtm5iYIi/vJQiCEFtXbGllCUsrSwBAQUEBbt64AbdZs8SyRScPHz5El65d 4DZrJgDgn7//wcsXL/Dlf/8rlj2+sO3XnTsw1e6DVFnaibaa1SK1MWiDoqK3ZFlDQwMjLC0xwtIS 5eXlAtuq85nq4AAjIyMcCApu0n5JSTEMDY0oE6f7bvbGOs/1UFVVpcQelQwYOBDl5Vzs3rkTPps3 w8zMDJ3/8x+xbIkStvHFg0cOHcamn3+mPdFWswKpV+/eSEtNQ8H7UWUtLS3Y2tvB1t6u0V8+i8WC 7xY/HD54EE+zskTaT7h+Hb3EyFjWmC1NTU181b8/JfaoprKiAmw2G2/fvEVxcTFUVVWb7Eg3hihh G0C9eFAUzQqkL774AuOsx2P50mV486Z+oz6CIHD29Blcunix0evMzM0xf+FC7N2zW2h9ZUUFoiLP 4WDwAcxfSI0S4OSJE5hsK/wHywROnjiBgRYW2Ozrg1937oS2tjbOx8SIZasxYVtyUjJ5jrQSbTV7 UMbb1xd+3j4YOXwEzMzNwS0vx5BhQ7Ht1+3Iymy8xZkzdy4iwsMFjtlOmgwWiwVlZWV0694Ne/z3 UfJ1xeVykZyUjJ27hQcuE1BRUcHLFy8B1P8x5ufni/0KbkzYJguaHUgaGhrw9vPF+p83IDcnF506 dfxktNXY2BgPHgvKW5VVlAU63HQ+6MXzFzBs2DBGSzPcZs3CvDlzMHH8eHC5Fejdu7dAwgh5pcU/ cXV1dXTt1pUOXySG329jMjo6Ojh+6hTevHkDFRUVynRTDYVtDaFSPCgK5v7ptmJYLBbj09S0FEYH 0tkzZ5CSnAQAZCf/c5i8jY46RybNKC+Xj+dlbCDNmz8fqfc/9KcyMzPx6OEjlBSXiLiqdaCqwian SADgm2+/YXwLxthAGm9tLTBaHhkRgUsXGh9qaE18+eWXWO3hIWs3WgRzE+4okCvkLpAYnpOTGuTw GeUmkPg7JxkyvK9ABSam9I9EU43cBBIfNpstaxdoR5PhslphyF0gKWAmjP1qa4yGiwdbGxkZzVsE ykTkJpD4faTzMTFiz5bLC8rK8veikJtAGjZ8OGbPmYPKygpZu0IrSiwlODg5ydqNFsMimkqXqkBB M5C/NlQBI1EEkgJKUASSAkpQBJICSlAEkgJKUASSAkpQBJICSvg/hNYzI24zceoAAAAASUVORK5C YII= "
       preserveAspectRatio="none"
       height="38.099998"
       width="38.629166" />
    <image
       y="146.1497"
       x="85.800598"
       id="image4504"
       xlink:href="data:image/png;base64,iVBORw0KGgoAAAANSUhEUgAAALcAAAChCAYAAACF4S4ZAAAABHNCSVQICAgIfAhkiAAAHiJJREFU eJztnTFw21aax/97cyXdZBs+NZEmBGuRxUry2Epl2QQrK7aVy13sschKtGR2SSz5bhKR2t3qKGq5 FSlNbm9vo3jjbQzQcaqVPZGVAlBNcMauDFbbWNU2vIJ8TwAIgKQEko8QfjMayyJIgMCHh+997/t/ 36+azWYTAQE+5F9GfQABAYMiMO4A3xIYd4BvCYw7wLcExh3gWwLjDvAt/zrqAxg1xcI2NK2Ght7A yckJQqEQwiQ8sP3F43GEwwSqqkLX3zluR8gEYrEYZFli7zGiqipisRgAQJYlx89JpdOYbm930fjV RY9zRyanRn0IAyWRFLFTKo36MEbChR65G3oDAEAIwaONDQBALB4/88h9rKrQ3+kobm9Dq9Ww/ngD 4TBBIik67ltVFNPf6XsTSRGimDzTcVBWM5lzvX/cudDGTQ1rOZ2yNcB+mY7FMB2LQdM0aLUa7qdS jtvSG8i6X/re9Y3H53aPEvL5v9M4E0wogQ5/lgcG6fdfFHw7cjf0BvK5TddtjhV1SEczOo4VFVVJ BtD5lPA7vjXufG6TXVRCCKbjnREDXdeHfVhDR9f1U9/bxgUnhODl4c/DPagh4VvjBrpfuL14BfnN 3BCPaPgYJ8sAQCYIQqEQtJqG3UqlY0LrJ3ztc9uN1kaor22ME9c1DYmF6ygWts+9f/rkOAt1TTv3 /oHWOUgkRfYzHYshIghIJEVXv97tHKxmMkgsXPfk+AYJd8a9V6kgMjnlaly3Fz9BZHLqXMbjxP27 96DVatC0muef3Q9azd64t3J5XJ27zEKJRqqSjNVMBsfq+ecSJ+/fo1godPy9rmmoSjIiQuTc+xg0 3Bj3saoiMjnV1U2oSjJ7lG7lvHcpHm1sIBaPe/65vUINym7yVyxsY7dchq7rHe5EXdOwmsmgKsmo lMs97YuQCcfXEslWjN0aK1/NPACAM8fgG3rD9sYcBNwYNwD26HRjt1Jhv+u67vno3e1x3Qtr2YcA gEajvwlrt4u+ln2IV4eHHX8/VlXcuLbQ900Zc1mWX27H6KuSzI6rKsnQajUQYl6Yqkoyrs5dRmRy CpHJKVydu9xxXaqSjNuLn+DK3ByuzM0hMjmFrVy+r+PtF26MezoWw06p5Doi1DUNqqIgkRTxf/vf AXDPq6hrdc+Ps1cSSRHf73/f13voaOx2g5+cvO/421dffAkAePL0h77250aYhCFEowCA7/f3AZye a+Nchj4xjJEnGqH55ejItI31abNbLnsyt3GCG+PuBWos8Xgcv5mZAeA+adNqo/Ob4/E4tFqtL/+X PpXc3AWrL75XqUCr1bCWzXriaxu5Oj8PAHh5cADgdF0glU6zbeiNtVMqof72Depv32C5/frrw9em bRJJkW2zls22vs8A5zZjZdy7bV8yHCaoSjJ7DPOYQ3E/lUIsHsfqSqanyAcd2YRolLkEvaC3XYZi oYBbNxcBtG54L0ZEsf0EURUFW7k8dF1nERfg9ElqdVMebay3nsJJEceqykbs9Y3HbJu17EP89W9P TTeK14yNcRsv1momY3rMuY3e9NHYD4IQ7f8Abfjt738HXddx49qC6zEWC9vs9a83v+nJ5xeiAoCW IdHR8PlPLwAAa9ks8/vPw3QshpnZWQCnA8vnd++y1+X2MduFXBNJERFBgP7u1F2xfi+aizMoxmIR p6E3HKMI1Ciqkmzrq/7X4/90DFvRx6zVz/fCMAAgIgj469+e4qsvvsRqJoNYJW4alWVZQl2rM/dp p1Ri7pYTsXgcsXgcEUGw3R8hBPMfz7O/NfSG7blp6A3T5NyJ//j8cxy9fs323e34eGIsjLvansjE 4vGO3OQtksduuYzdSsV0AVPpNI4VFVqtxgQIDb0x9BW56VgM1Rc/4lhVUSmXbV2oRFLsOQswTMKu E0friqyqKFhVFNul915IJEWQHIGu68xNoQg2NxhPcGfcZKLlv1lPZCIp2vpny6kUdP1dRxhtOhbr mjOxVxne8juNBmEEugF601ufUGqPE1Cn85hIikCmHS7caLCbk55X5h61b6ytXB6PNtYBtPz1G9cW Biqm4M64mREYuJ9KOeZGh0n4zCeHx1RXr3EzHi+yBNeyWRQLBdy/dw8JsfV51pVNus1uuYxQKGTa xqv5jR3cGXfAeHFnaQkvDw6gKoop9LqcTrO5y52lJWharR3FOTX8WDyOO0tLAzu2wLgDzgWdA1CJ HdAp1aNP18bG6ZxHiAq2k2IvCYw7wBN6CeuFSXiogomxiXMHBPTLhTbufhObxpFhZuHxhm/dEprb 3At+NnJVUXBlbs7x9Z1SybfaSt8aN81gm5mdZUvIVqpyK4VTURTXMgzjTiIp2obcioUCitvbXY27 WNhGsVDA859esElgVZKh2eTMeLW66wXcGfexqmJ1JYPQpUuovvjR9NrtxU/Y73Q2LopJx4tDCMGf v/uL474EQeAy6coNmvlnnbzVNQ1aTQOZIKbX3OLcNDznhjF8p9U0ZtyyLNm+9+XBgaept+eBK597 NZPBrZuL0HXdNl1VVRSoioIwCaOu1Znr4ZQB101DacdWLs+S7iOTU1wZf7GwjVs3FzuUNquZDG5c W4AsS7h1c7HnY+6WkXesql0/azmdxk6phPXHLRGyqigDkf+dBa6MG+i+akZHouqLH9kJtdP6nYW6 pmG3XMarw0PU375BIilyc6EaegOCINiqbQiZwPOfXjAj6/WYjRl7dqyudL9JSDu8lzhn6bdBwJVx 75RKjo9Qu9TV9+9PAMDRp+6XiCCg/vYNc3kGuTTcLzRGbJdc9WhjnbkLSjsn/LwUC9vQdR0zs7Ou A05+M4fI5JRp0srLBJU7n9sJo/ImIp1WZiWE4OvNb870mWSCtD/DXvlSleWRioX7ZSuXR1WSPUlE erK/z85tP3I5QvjJ1+Fq5O4FqvpIJEUQQtr++dlqfNCJl51Qlvqa41T+99HGOhJJ8dxVAaqSDF3X oes6ttsJT0Cr2oDV5aHysleHh0gkRei6jr0e8sSHwdgYNz2py+kUc19oKqbXkz76edUXP45FQUqj wYli0iTWddNjOkHTjql70ctoHCZh5sYpnFSxGhu3hMZU+0lTrUqya/60nbaRSr7qb9/0fYyjYjWT wcyfZvH15jcobm+bfG6aYtoP1rRjGpV6tLHR4U/LssSuDZ3Yn7euuFdwa9xUHW1lK5djCzRUJnbW CQxVdRuhamzacWE5nWYJ9jywvvG4Y0V1p1SCLEusdgmNIgHu6vJ+V2bpHMVIVZJRxemTo5faM8OC S+NuraiZ0yHFpNhxoabjMSzH7YUM9HHcb1uQUalleiVMwh2uEjMom+OuSjJWHTRmvZZwTiRFvIof mva7vvG4Y4Tmxagpvu6J0628AV1+92t+BS2v5oYQjXasBPsFLkdur+iW5zD/8Tyr9eFXCCF48vTp WEyMvWZsoiWD4CK0sJuOxy6kYQMX3LgD/M2FNu5BFmEMGD2+9bn7ESv4maok47b+iaNr4pYyPO74 1rhpLHwtm3WsjERzklVVHZsLfKyqCIdJh7Gy5laWfG7Aue0f7XRWT47PglVfNH3Kg5WV5oOVFddt 5GdS86MPJ03babVa88HKSvPGtYXm0evXgz7MntFqteZnS592HG+z2WzeuLbQ/OjDSfbv9n8Xms1m 93NAv3835GcS+0yn1+VnUo/fZHhw53PTnjjG+CwVENgl5Gzl8ljNZM4kgrXL+Lt/9x4ImcDV+Xl8 tvSp5zWvz8rJyQk++PUHHX9v6A2EQiHU375hOe5e5bcDMAhC7D+zoTdY1V2vmlR5BTfGbe2JY9Tn 0bqB+c2cyYj3KhXslsuoa/Uzhbvs3rPzxxIebayzJfde+8sMGprvkUiKiBtuSmthzHCYeJZ22osS x1gplvbL4QVujFt/1ypsbjeaTsdiLNeEnuy6piG/mUMsHvd0hY36q7Rfi7FgOi+4JY9t5XKmvpPn gSpx3G6W3XKZlVXut5PEoOHGuKl8zKmrwFr2IYRoFKqisAqhQKvA+yCgSVV2PWh4pVjYxu2lJU8m x1SJs5bNOmpRaSh1OZViLUZ4edIBHBl3L1BDpoZNq/c70S2vws1Pr774EUI02nfTpkFjd8wNvYHE wnVoWu1MpRWs8f6G3sCT/X3E4nHHz7M2BKAFLXtNxhoG3Bm3W83o6ViMNRMSotFzuwzWQvRVSTa1 j4sIEej6u3Ptw2us84SG3sDtxUVotRpEMWlqrXdWqrLEBA+rmQwzWGNpDbOvnUE+twlgMO0Tzwp3 cW5qTE4jBpWEJcTe+kUWC9sszm18XB+raseNJEQFbOVyzOhVReFOZmZ3PNPxGKYRM7UtPI9rEg63 lDjHimoaAIy/V6XTbhcUIRqFVqt1dLkYFdwZt1cIQhRVmOtBd2udEREEvDz8md0QCU6Ky7jRrfg+ zee2KvmNBXlm58zVA6yCA5o6S9VJVGM5MzvbUfSolzTbYeFb46YFz91gq3oWnSFPJcG8wKqWMbKc TvfdxIk+8eyqDqTS6db+HBpwDZVRryJZkZ9JrqtqqqI0H6yseLIiRlfoeFxd84IHKyvNK7NzTVVR zvU5+jvd9Bmqorh+pqooTf2dfq59eoGvlTjdoCFFPytxgPEqT+El3EVLhsmg21YEjJYLbdwB/iYw 7gDfcqGNm7cstgBv8W0okLbC1jQNmlZj4T7jiiNdyRsnsUK/VCUZe/GKY7KVX7834GPj3m2nw/YC b0vsXuPWAnxZ5auilpdwY9zGJp1ejCbUYI19XKwMs/f7KHEKBbaqtkpdjZvm29DtrP83UpVkW6nb SBh1oL3ZbC02fPThJPu5cW3Bcdturxs/s5vMTKvVbGVbvOMm+TLS7RzQ895tX/S6UKic7bOlT223 5eV8jnxCeay2RKq07jZNerdTgFCZmVbr3qioF0KhS46v0TTSq3OXz70fr6hrGm4vfoJioWD7/Vcz GUQmpzzrO3msqrbyMpp6fPT6NRMnGFNgu/XaGRYjN27qiuz8sWRqG2J38XbLp2mWxe3z1xxxyyqk aaTGWtejRqtpjsdsTHXtVXJHyIRr5winnjjG1GO6DR2MltNpPlwScGDciaSI+ts37IRYc6wpRmUI 0Bq9BxXKKxa2Ebp0ybNeO17h1nYvkRQdVUxOhEIhxxvB2BPHjjtLdwC08rcTC9fZdeNpcjpy47ZC k+CtF5E+8u4YZFSDUMnQvot7337LnXF7jVPWJFXiuPXxjAgCu0a0reLzn14M5kDPCDfGTX1cVVGw nE6bIibU147F4wiTMKsLTRPmvWQr1xIdq4qCqsxHXvKw2a1UoOs6woSYJGjW0hrGvO/ldJq7XB0u jNsolUokxY5HG/W1VUUxNT7tJmnqNrGyez1MCFRFwWomw0Yko/SMF7zqsmaneaRhVFVRTBNKt7Cp XdOsUTPyOLdRyT4zO9vhjlDVhxOyLDnGxZ38d7fXjTVAIpNTEKJRrvxIOs/wqiyx3bl9mM2alDvU wMctdXbkxn3/7j32+we//sAUAqS9XgD7xZirc5d7aurk9Ljs1hNmp1RyFSyPgoggmHreGCETpOM1 t6eX02sRQTCpkZ7s77cmjmO2VD9y4w63e0kCNuG/Ephcyc5Al9Mp5DdzKBa2HaVh9KlACMF0PNZX fJyn5kVG7HoAAa0QnTUMR105J3qpTrWcTkF3uBFoTJvHZrS+VeI09EZ7YuScN3KsqGxEGrdHbi9Q sa7dDUon5TzevF4x8pF7UIRJuKuvfBFqePv1xu0FLqIlo4I+Ss/SZTeAfy60cV/URkgXhQtt3BS/ 53NfVC60cdsVs/cbXmUIjiO+nVA29AYrzmikrtXZyuNFQFUU3F4MGj75inxuk8W0aU4K0KrcGhEi AE5DgX6HrsQmkqJtnN/JuI9VFQd/P7AtJAp0rkvwdpNwY9x1TYPczsgTolEkRLFjYcaYxDM7N9u1 xl23vuYXIRQIgBWwBGBazU0sXHd+j6Z1tA5f07LsmtieuwxfoUdujPv+3XtsFNVqtdaPVmMnqljY NiXxFNu/upVCoyO0E3aranbuTIqTBPxiYRuaVsP6xmOTm7GVyzMxdCIpml53G03dzg9Ni6A9eHbL FRQLBYiW1WK68guAFcDci1ccV1GHCRcTSpocJUSjeHV4iFeHh+zvdEJE00+X02mm2CGEnGvktfND VUVBVZIRj8chikmIYpILw96rVFCVW8ZjTPjayuVRlSQ8/+kFXh0e4lhRTYXhz8p0PMbO9f1Uihmw bHFFpuMxdj2okETpkrA2LLgYuYWogLVsFrNzsx0G1+pJE2aTwFgsxkYjWZagSzp+OTrquwxvN3gY eYzcT6VwP5XqyBPR9Xe4vbTERtPbS0vtgeB8mYxG16KuaY61vI3bHL1+DeB0aX/UcGHc1iw0GqIj hHQkTNEsPa19wgkhnhs20GqRoSoKCCF4tLHB3WSJUpVkiKVTYxIEAUUPo0HGmymRFDvOdVWSEZHM NxwvSVRcuCVGGnqDJcXbtZzbLZdNTT/DHvVcpJCJVh/H5VSqpe2Mx7CV839tEyfWsll2Yx8raodu lZBWmm0iKUKItnLAvXCLvIAr4y4WtnF7cRGEEDz/6YXtaLlTKuHV4SF2SqVTOZiHbSqmYzG8PPyZ 7TuVTnMdLozF46acc1mWPGmyWpVkHKsq1rIPsVMqYf3xBnRdt/W576dS2CmVWGRqEPK/s8CNcdNo iK7r2Pufbx0FBolkq9GTUe2teaiCr2uaKURGS0/wytX5edYzE2gtUjn1jeyH1UwGX33xJfv/+/cn Xd/zy9ERACB0ybkezDDhwufeq1RMPQ21mgatprH/G6H5yVVJ7vr469YT0W7EjwgCTt6/x9W5y0zc 4KR8GQWJpAgycToy31lawpP9feYbE0L6amHodI4IIS1N68J1RIQIm9+INtfjtv4JGrrOnnC04eqo 4UKscHXusuOjn8axndQkTosGNFFfiEYd47nUuO0+g1aJNa5u8kxd03BycmIKW9JzYPxuzH9WVeQ3 W20JTYs8bRp6A6uZjGl10xg/P1ZV227B8Xicm0gTF8ZNDckOejHq2uloTnEruNjP6iNPq2peQiM+ bhBC8PLw5yEd0XDhwi2hPrQbEUHoqy5GIiminuwckYxYVz39hvGJQxdYrFjdDD/BhXGPivmP51Es FBDnJC47CGLxuKlcxUWCm2jJKKAujVPXAT8wDvOFQXGhjZviZSgxgB8utHHTaInAWY07LwmUOD7F aeVSVVXo+jsW43UryTbu0LqHghC1vYn9+r0BHxu3Mcf5olOVZFRhf6O7NXwyhmjHJd5vhBvjNipx 1rJZU5YgVeA4lUyzgyraZ2ZnMTM7a/tev4cCKU5hwKosY7dctjVuY4FSilPzLLpYZL1uI2eUDXko qqKYGj7RH1VRms1ms3lldq750YeTzd1y2fQ++ZnU/OjDSdsGSA9WVpq3bi667ld/pzc/+nCyKT+T vPsyHNFLw6crs3O2r9FzfuPaAmsMZbctPYfWplA8wMWEki7jrmWzqL99w/xA+vfldGs5d7dcYROk uqZhK5cDIcRxtOj2GHV6fSuXR2Ryiv14mXXIG05JVrSGYvXFjywFwi5FoiqbMwB5KpfBhXGn2nIm aqTWRZX7qRQ7ubuVloHfuLYAXdfx5OlTT4/lWFWxWy7j1eEh6m/fYKdU6lrqeJRs5fK4OncZiYXr fRfJd1PM0O8OtCVu7cQpK7vlCgghbFtrSuwo4cLntpbepb1ujAXQd0olJLTr2C2XWYrnWjbr+STn 4O8HLK0W4Dua8O+f/hv+8Y9/4OXhz/jl6AifLX2KUCjkqd9rTFi7vbRkes3YhCuRFIFMKzrjVhN9 mHAxchvZq1Sg1WoQotGOi0Q7aNHX71hO9lmRDY9WTWv1uLw6dxmRySlcnbvMei3yxtHr11h72DpH v5mZaaULOzRxcqJbWnAiKbIR25g3DpyKti9dCrV6GrUHAut2o4Ib46YNn/KbOebrWTGmUu6U/jCw 0BQhBE+ePmUyM6d+jDxgdJkaeqPv+YFTqjGtPLBTKuHl4c9M9UQjV3QQAlq9cq7MzbF9G/uFjhIu 3BIAuH/vHhuR3dJPqVBhkI+96XiM3TiimOR2QjkzO4v8Zg7v35/g6PXrrumtvVLXNKxmMqZUYOtA Qss30AJKlKossw7Po3bpuDBuY+ewO0t3bMugUQZtaLQADYXnyeSfv/sL9ioVKIqCmdlZ/POf//Tk aUYHjqokYxUZEDLBzruYFE1PiL1vvzXtc/7jedy6uQhVVQPjplWKKMZ2cHaJ9MTQQ6eXz3ZrBmXn SyfEJHbLFVydu4zQpUvQajVuhQx1TUPMoHx5eXDQVyF9t2ZWO6UStnI5dm1oiYuIILDztlMqddxM 0+26MlVJGnkXOC6UOE6jsZ3Shp7YblWgrMvvifaIQ6Vjxke4nRLnWFWhv+O7g5ex501dq+Pk/XvT YGB8nYb9jJNnWgjUTmbmB7gw7kFgt3zsxDjLzKqSzFJ2rdElatzd8Ktxj9wtGRQRQcCrw0OTwNWK H5KrEkkRiR62cVqwMSrp/YZvR+5eiUxOYTntnBk3zmzl8lAVJZCZXWRCodCoD2EgxGKxsUtT9ZLA uNFaYQvwHxfauC+CBKvb8rqf8e2Estf22EBrtY2XKkleo+s6Kw1nR7cKUcaqXOPGwIy7tYT7gK08 CtEovt78htV3psoboDOEVSxsm3reGHvh2G1vh7Hh00WFxrR1XYcuOeeQ2Bm3NZQqbEexU/oDIoLA qnnNzM7iz9/9xfQ+qm7iIbw4EOM+VlWsrmRYK5BQKARVUfDZ0qdYf7yB+6kUXh4cMInXpUsh0wku FgrQtFah82pbemaENoX67e9/13Uxxy0MJsuSr28AmhdjF8NvNHTsliuOq720J47x+n31xZd48vQH Vlz+6PVrUw5JXdNQLBS4KT4/EJkZlShRmVizeSoJo1IlKl2yypeobIlKx+j7HqysNOVnUlN+JjVv 3Vxk79Xf6bbH0E1iRaGfbSS/mWPvp/vlFf2d3twtl5sPVlaa+c2c6Zx3Owf03Nrx0YeTzfxmjv2f nnNKfjNnunZGuZnTNRk2nk8oaQL7sqUDWCIpov72jW3RRV3XmTzJmtlG8x8EIdpasEiKePL0BzZa eFHF35qPIbZHe1FMoqE3TEvWvLGayUBRFIhiEoSEcevmoicT5frbNyz2T5tMGZU4jzbWIUSj0HUd q5kMKzq6/niDm/DjwHzumMGwjUvEgiCYJidr2SyKhQK+3//e1vdzmhB+fvduuwva+fu2xyyujVEZ JMuSSRHEG9YSxLQssRcTQKvfbVXiVF/8aNKYzszOcjUxH8DI3VkqgfawKRYKHWWFBUHAcjoNrVbr mDi6MYgmT1ZoFy+vFD+DIJEUmXaS6hy98nlDoUumm8RO5WMszP/15jee7NcrPDdupz42y+m043to +49iodCzCzCMieBq5gH3xWha+edlRCansJrJYDmd8ux4wySMnVIJ9bdvEIvHUZXkjoZPdKROWJqv 8oDnxk0f4UYjTSTFjke/EWN97l6N9n//9CfT/rymKrUUJcscPWbtyG/m8PynF6i/fYPnP71AfjPX YYD9UpVkRCanTE9SesPwpG7vhuc+91r2IV4eHKAqydgieWbUbonxALC+8djVsKlwF2jdOLShpxcu g53ahh4vN2EtG6jx0RGT/qvVzqc+p9/5yf4+gFaolro8XFWU6sJAJpQ7pRJWMxnbdFInY6GPQKdW H1bFjhCNYu3hQ08ewbpNdEFVFFulCU+sZR/iyf4+9ioVhMOE3aTGNNZelt+tekfjtaBzKEIIdv5o n/NOCOlLATQsBmLcYRLGk6c/dPS6MZ7AnVKpQwKWSIr468RTkwJmfeNxxyKMWy8cI8eK2hpxbLan y/MAQGwMeFzSRF8e/oy9SqXdf3ICrw4PTTckDbNenZ9nq4sU6jpqmtaRE95L2xXjMfCIb/O5+2n4 xF0BR48IlDg+JZEUsaymHePgVD8I2Ie4/AQhxDZxipCJoOHTuNJNXdPQG7gyNzekoxkdvLoNg+ZC 53PzPFkMOD8X2rgpda0+6kPwnF+Ojnz5vfrB125JL7DybA7ttweBEI2y/ujjrr7nGd9GS/phK5d3 nHgSMgFdf+day3rYNBo6FEWBIERxcnLimjwmismxVNF4QWDcAb4l8LkDfEtg3AG+JTDuAN8SGHeA bwmMO8C3BMYd4FsC4w7wLYFxB/iWwLgDfEtg3AG+JTDuAN8SGHeAbwmMO8C3BMYd4FsC4w7wLYFx B/iWwLgDfEtg3AG+5f8B+tOBlCOdnTcAAAAASUVORK5CYII= "
       preserveAspectRatio="none"
       height="42.597916"
       width="48.418751" />
    <image
       y="104.28085"
       x="85.723145"
       id="image4504-3-6"
       xlink:href="data:image/png;base64,iVBORw0KGgoAAAANSUhEUgAAALcAAAChCAYAAACF4S4ZAAAABHNCSVQICAgIfAhkiAAAHiJJREFU eJztnTFw21aax/97cyXdZBs+NZEmBGuRxUry2Epl2QQrK7aVy13sschKtGR2SSz5bhKR2t3qKGq5 FSlNbm9vo3jjbQzQcaqVPZGVAlBNcMauDFbbWNU2vIJ8TwAIgKQEko8QfjMayyJIgMCHh+997/t/ 36+azWYTAQE+5F9GfQABAYMiMO4A3xIYd4BvCYw7wLcExh3gWwLjDvAt/zrqAxg1xcI2NK2Ght7A yckJQqEQwiQ8sP3F43GEwwSqqkLX3zluR8gEYrEYZFli7zGiqipisRgAQJYlx89JpdOYbm930fjV RY9zRyanRn0IAyWRFLFTKo36MEbChR65G3oDAEAIwaONDQBALB4/88h9rKrQ3+kobm9Dq9Ww/ngD 4TBBIik67ltVFNPf6XsTSRGimDzTcVBWM5lzvX/cudDGTQ1rOZ2yNcB+mY7FMB2LQdM0aLUa7qdS jtvSG8i6X/re9Y3H53aPEvL5v9M4E0wogQ5/lgcG6fdfFHw7cjf0BvK5TddtjhV1SEczOo4VFVVJ BtD5lPA7vjXufG6TXVRCCKbjnREDXdeHfVhDR9f1U9/bxgUnhODl4c/DPagh4VvjBrpfuL14BfnN 3BCPaPgYJ8sAQCYIQqEQtJqG3UqlY0LrJ3ztc9uN1kaor22ME9c1DYmF6ygWts+9f/rkOAt1TTv3 /oHWOUgkRfYzHYshIghIJEVXv97tHKxmMkgsXPfk+AYJd8a9V6kgMjnlaly3Fz9BZHLqXMbjxP27 96DVatC0muef3Q9azd64t3J5XJ27zEKJRqqSjNVMBsfq+ecSJ+/fo1godPy9rmmoSjIiQuTc+xg0 3Bj3saoiMjnV1U2oSjJ7lG7lvHcpHm1sIBaPe/65vUINym7yVyxsY7dchq7rHe5EXdOwmsmgKsmo lMs97YuQCcfXEslWjN0aK1/NPACAM8fgG3rD9sYcBNwYNwD26HRjt1Jhv+u67vno3e1x3Qtr2YcA gEajvwlrt4u+ln2IV4eHHX8/VlXcuLbQ900Zc1mWX27H6KuSzI6rKsnQajUQYl6Yqkoyrs5dRmRy CpHJKVydu9xxXaqSjNuLn+DK3ByuzM0hMjmFrVy+r+PtF26MezoWw06p5Doi1DUNqqIgkRTxf/vf AXDPq6hrdc+Ps1cSSRHf73/f13voaOx2g5+cvO/421dffAkAePL0h77250aYhCFEowCA7/f3AZye a+Nchj4xjJEnGqH55ejItI31abNbLnsyt3GCG+PuBWos8Xgcv5mZAeA+adNqo/Ob4/E4tFqtL/+X PpXc3AWrL75XqUCr1bCWzXriaxu5Oj8PAHh5cADgdF0glU6zbeiNtVMqof72Depv32C5/frrw9em bRJJkW2zls22vs8A5zZjZdy7bV8yHCaoSjJ7DPOYQ3E/lUIsHsfqSqanyAcd2YRolLkEvaC3XYZi oYBbNxcBtG54L0ZEsf0EURUFW7k8dF1nERfg9ElqdVMebay3nsJJEceqykbs9Y3HbJu17EP89W9P TTeK14yNcRsv1momY3rMuY3e9NHYD4IQ7f8Abfjt738HXddx49qC6zEWC9vs9a83v+nJ5xeiAoCW IdHR8PlPLwAAa9ks8/vPw3QshpnZWQCnA8vnd++y1+X2MduFXBNJERFBgP7u1F2xfi+aizMoxmIR p6E3HKMI1Ciqkmzrq/7X4/90DFvRx6zVz/fCMAAgIgj469+e4qsvvsRqJoNYJW4alWVZQl2rM/dp p1Ri7pYTsXgcsXgcEUGw3R8hBPMfz7O/NfSG7blp6A3T5NyJ//j8cxy9fs323e34eGIsjLvansjE 4vGO3OQtksduuYzdSsV0AVPpNI4VFVqtxgQIDb0x9BW56VgM1Rc/4lhVUSmXbV2oRFLsOQswTMKu E0friqyqKFhVFNul915IJEWQHIGu68xNoQg2NxhPcGfcZKLlv1lPZCIp2vpny6kUdP1dRxhtOhbr mjOxVxne8juNBmEEugF601ufUGqPE1Cn85hIikCmHS7caLCbk55X5h61b6ytXB6PNtYBtPz1G9cW Biqm4M64mREYuJ9KOeZGh0n4zCeHx1RXr3EzHi+yBNeyWRQLBdy/dw8JsfV51pVNus1uuYxQKGTa xqv5jR3cGXfAeHFnaQkvDw6gKoop9LqcTrO5y52lJWharR3FOTX8WDyOO0tLAzu2wLgDzgWdA1CJ HdAp1aNP18bG6ZxHiAq2k2IvCYw7wBN6CeuFSXiogomxiXMHBPTLhTbufhObxpFhZuHxhm/dEprb 3At+NnJVUXBlbs7x9Z1SybfaSt8aN81gm5mdZUvIVqpyK4VTURTXMgzjTiIp2obcioUCitvbXY27 WNhGsVDA859esElgVZKh2eTMeLW66wXcGfexqmJ1JYPQpUuovvjR9NrtxU/Y73Q2LopJx4tDCMGf v/uL474EQeAy6coNmvlnnbzVNQ1aTQOZIKbX3OLcNDznhjF8p9U0ZtyyLNm+9+XBgaept+eBK597 NZPBrZuL0HXdNl1VVRSoioIwCaOu1Znr4ZQB101DacdWLs+S7iOTU1wZf7GwjVs3FzuUNquZDG5c W4AsS7h1c7HnY+6WkXesql0/azmdxk6phPXHLRGyqigDkf+dBa6MG+i+akZHouqLH9kJtdP6nYW6 pmG3XMarw0PU375BIilyc6EaegOCINiqbQiZwPOfXjAj6/WYjRl7dqyudL9JSDu8lzhn6bdBwJVx 75RKjo9Qu9TV9+9PAMDRp+6XiCCg/vYNc3kGuTTcLzRGbJdc9WhjnbkLSjsn/LwUC9vQdR0zs7Ou A05+M4fI5JRp0srLBJU7n9sJo/ImIp1WZiWE4OvNb870mWSCtD/DXvlSleWRioX7ZSuXR1WSPUlE erK/z85tP3I5QvjJ1+Fq5O4FqvpIJEUQQtr++dlqfNCJl51Qlvqa41T+99HGOhJJ8dxVAaqSDF3X oes6ttsJT0Cr2oDV5aHysleHh0gkRei6jr0e8sSHwdgYNz2py+kUc19oKqbXkz76edUXP45FQUqj wYli0iTWddNjOkHTjql70ctoHCZh5sYpnFSxGhu3hMZU+0lTrUqya/60nbaRSr7qb9/0fYyjYjWT wcyfZvH15jcobm+bfG6aYtoP1rRjGpV6tLHR4U/LssSuDZ3Yn7euuFdwa9xUHW1lK5djCzRUJnbW CQxVdRuhamzacWE5nWYJ9jywvvG4Y0V1p1SCLEusdgmNIgHu6vJ+V2bpHMVIVZJRxemTo5faM8OC S+NuraiZ0yHFpNhxoabjMSzH7YUM9HHcb1uQUalleiVMwh2uEjMom+OuSjJWHTRmvZZwTiRFvIof mva7vvG4Y4Tmxagpvu6J0628AV1+92t+BS2v5oYQjXasBPsFLkdur+iW5zD/8Tyr9eFXCCF48vTp WEyMvWZsoiWD4CK0sJuOxy6kYQMX3LgD/M2FNu5BFmEMGD2+9bn7ESv4maok47b+iaNr4pYyPO74 1rhpLHwtm3WsjERzklVVHZsLfKyqCIdJh7Gy5laWfG7Aue0f7XRWT47PglVfNH3Kg5WV5oOVFddt 5GdS86MPJ03babVa88HKSvPGtYXm0evXgz7MntFqteZnS592HG+z2WzeuLbQ/OjDSfbv9n8Xms1m 93NAv3835GcS+0yn1+VnUo/fZHhw53PTnjjG+CwVENgl5Gzl8ljNZM4kgrXL+Lt/9x4ImcDV+Xl8 tvSp5zWvz8rJyQk++PUHHX9v6A2EQiHU375hOe5e5bcDMAhC7D+zoTdY1V2vmlR5BTfGbe2JY9Tn 0bqB+c2cyYj3KhXslsuoa/Uzhbvs3rPzxxIebayzJfde+8sMGprvkUiKiBtuSmthzHCYeJZ22osS x1gplvbL4QVujFt/1ypsbjeaTsdiLNeEnuy6piG/mUMsHvd0hY36q7Rfi7FgOi+4JY9t5XKmvpPn gSpx3G6W3XKZlVXut5PEoOHGuKl8zKmrwFr2IYRoFKqisAqhQKvA+yCgSVV2PWh4pVjYxu2lJU8m x1SJs5bNOmpRaSh1OZViLUZ4edIBHBl3L1BDpoZNq/c70S2vws1Pr774EUI02nfTpkFjd8wNvYHE wnVoWu1MpRWs8f6G3sCT/X3E4nHHz7M2BKAFLXtNxhoG3Bm3W83o6ViMNRMSotFzuwzWQvRVSTa1 j4sIEej6u3Ptw2us84SG3sDtxUVotRpEMWlqrXdWqrLEBA+rmQwzWGNpDbOvnUE+twlgMO0Tzwp3 cW5qTE4jBpWEJcTe+kUWC9sszm18XB+raseNJEQFbOVyzOhVReFOZmZ3PNPxGKYRM7UtPI9rEg63 lDjHimoaAIy/V6XTbhcUIRqFVqt1dLkYFdwZt1cIQhRVmOtBd2udEREEvDz8md0QCU6Ky7jRrfg+ zee2KvmNBXlm58zVA6yCA5o6S9VJVGM5MzvbUfSolzTbYeFb46YFz91gq3oWnSFPJcG8wKqWMbKc TvfdxIk+8eyqDqTS6db+HBpwDZVRryJZkZ9JrqtqqqI0H6yseLIiRlfoeFxd84IHKyvNK7NzTVVR zvU5+jvd9Bmqorh+pqooTf2dfq59eoGvlTjdoCFFPytxgPEqT+El3EVLhsmg21YEjJYLbdwB/iYw 7gDfcqGNm7cstgBv8W0okLbC1jQNmlZj4T7jiiNdyRsnsUK/VCUZe/GKY7KVX7834GPj3m2nw/YC b0vsXuPWAnxZ5auilpdwY9zGJp1ejCbUYI19XKwMs/f7KHEKBbaqtkpdjZvm29DtrP83UpVkW6nb SBh1oL3ZbC02fPThJPu5cW3Bcdturxs/s5vMTKvVbGVbvOMm+TLS7RzQ895tX/S6UKic7bOlT223 5eV8jnxCeay2RKq07jZNerdTgFCZmVbr3qioF0KhS46v0TTSq3OXz70fr6hrGm4vfoJioWD7/Vcz GUQmpzzrO3msqrbyMpp6fPT6NRMnGFNgu/XaGRYjN27qiuz8sWRqG2J38XbLp2mWxe3z1xxxyyqk aaTGWtejRqtpjsdsTHXtVXJHyIRr5winnjjG1GO6DR2MltNpPlwScGDciaSI+ts37IRYc6wpRmUI 0Bq9BxXKKxa2Ebp0ybNeO17h1nYvkRQdVUxOhEIhxxvB2BPHjjtLdwC08rcTC9fZdeNpcjpy47ZC k+CtF5E+8u4YZFSDUMnQvot7337LnXF7jVPWJFXiuPXxjAgCu0a0reLzn14M5kDPCDfGTX1cVVGw nE6bIibU147F4wiTMKsLTRPmvWQr1xIdq4qCqsxHXvKw2a1UoOs6woSYJGjW0hrGvO/ldJq7XB0u jNsolUokxY5HG/W1VUUxNT7tJmnqNrGyez1MCFRFwWomw0Yko/SMF7zqsmaneaRhVFVRTBNKt7Cp XdOsUTPyOLdRyT4zO9vhjlDVhxOyLDnGxZ38d7fXjTVAIpNTEKJRrvxIOs/wqiyx3bl9mM2alDvU wMctdXbkxn3/7j32+we//sAUAqS9XgD7xZirc5d7aurk9Ljs1hNmp1RyFSyPgoggmHreGCETpOM1 t6eX02sRQTCpkZ7s77cmjmO2VD9y4w63e0kCNuG/Ephcyc5Al9Mp5DdzKBa2HaVh9KlACMF0PNZX fJyn5kVG7HoAAa0QnTUMR105J3qpTrWcTkF3uBFoTJvHZrS+VeI09EZ7YuScN3KsqGxEGrdHbi9Q sa7dDUon5TzevF4x8pF7UIRJuKuvfBFqePv1xu0FLqIlo4I+Ss/SZTeAfy60cV/URkgXhQtt3BS/ 53NfVC60cdsVs/cbXmUIjiO+nVA29AYrzmikrtXZyuNFQFUU3F4MGj75inxuk8W0aU4K0KrcGhEi AE5DgX6HrsQmkqJtnN/JuI9VFQd/P7AtJAp0rkvwdpNwY9x1TYPczsgTolEkRLFjYcaYxDM7N9u1 xl23vuYXIRQIgBWwBGBazU0sXHd+j6Z1tA5f07LsmtieuwxfoUdujPv+3XtsFNVqtdaPVmMnqljY NiXxFNu/upVCoyO0E3aranbuTIqTBPxiYRuaVsP6xmOTm7GVyzMxdCIpml53G03dzg9Ni6A9eHbL FRQLBYiW1WK68guAFcDci1ccV1GHCRcTSpocJUSjeHV4iFeHh+zvdEJE00+X02mm2CGEnGvktfND VUVBVZIRj8chikmIYpILw96rVFCVW8ZjTPjayuVRlSQ8/+kFXh0e4lhRTYXhz8p0PMbO9f1Uihmw bHFFpuMxdj2okETpkrA2LLgYuYWogLVsFrNzsx0G1+pJE2aTwFgsxkYjWZagSzp+OTrquwxvN3gY eYzcT6VwP5XqyBPR9Xe4vbTERtPbS0vtgeB8mYxG16KuaY61vI3bHL1+DeB0aX/UcGHc1iw0GqIj hHQkTNEsPa19wgkhnhs20GqRoSoKCCF4tLHB3WSJUpVkiKVTYxIEAUUPo0HGmymRFDvOdVWSEZHM NxwvSVRcuCVGGnqDJcXbtZzbLZdNTT/DHvVcpJCJVh/H5VSqpe2Mx7CV839tEyfWsll2Yx8raodu lZBWmm0iKUKItnLAvXCLvIAr4y4WtnF7cRGEEDz/6YXtaLlTKuHV4SF2SqVTOZiHbSqmYzG8PPyZ 7TuVTnMdLozF46acc1mWPGmyWpVkHKsq1rIPsVMqYf3xBnRdt/W576dS2CmVWGRqEPK/s8CNcdNo iK7r2Pufbx0FBolkq9GTUe2teaiCr2uaKURGS0/wytX5edYzE2gtUjn1jeyH1UwGX33xJfv/+/cn Xd/zy9ERACB0ybkezDDhwufeq1RMPQ21mgatprH/G6H5yVVJ7vr469YT0W7EjwgCTt6/x9W5y0zc 4KR8GQWJpAgycToy31lawpP9feYbE0L6amHodI4IIS1N68J1RIQIm9+INtfjtv4JGrrOnnC04eqo 4UKscHXusuOjn8axndQkTosGNFFfiEYd47nUuO0+g1aJNa5u8kxd03BycmIKW9JzYPxuzH9WVeQ3 W20JTYs8bRp6A6uZjGl10xg/P1ZV227B8Xicm0gTF8ZNDckOejHq2uloTnEruNjP6iNPq2peQiM+ bhBC8PLw5yEd0XDhwi2hPrQbEUHoqy5GIiminuwckYxYVz39hvGJQxdYrFjdDD/BhXGPivmP51Es FBDnJC47CGLxuKlcxUWCm2jJKKAujVPXAT8wDvOFQXGhjZviZSgxgB8utHHTaInAWY07LwmUOD7F aeVSVVXo+jsW43UryTbu0LqHghC1vYn9+r0BHxu3Mcf5olOVZFRhf6O7NXwyhmjHJd5vhBvjNipx 1rJZU5YgVeA4lUyzgyraZ2ZnMTM7a/tev4cCKU5hwKosY7dctjVuY4FSilPzLLpYZL1uI2eUDXko qqKYGj7RH1VRms1ms3lldq750YeTzd1y2fQ++ZnU/OjDSdsGSA9WVpq3bi667ld/pzc/+nCyKT+T vPsyHNFLw6crs3O2r9FzfuPaAmsMZbctPYfWplA8wMWEki7jrmWzqL99w/xA+vfldGs5d7dcYROk uqZhK5cDIcRxtOj2GHV6fSuXR2Ryiv14mXXIG05JVrSGYvXFjywFwi5FoiqbMwB5KpfBhXGn2nIm aqTWRZX7qRQ7ubuVloHfuLYAXdfx5OlTT4/lWFWxWy7j1eEh6m/fYKdU6lrqeJRs5fK4OncZiYXr fRfJd1PM0O8OtCVu7cQpK7vlCgghbFtrSuwo4cLntpbepb1ujAXQd0olJLTr2C2XWYrnWjbr+STn 4O8HLK0W4Dua8O+f/hv+8Y9/4OXhz/jl6AifLX2KUCjkqd9rTFi7vbRkes3YhCuRFIFMKzrjVhN9 mHAxchvZq1Sg1WoQotGOi0Q7aNHX71hO9lmRDY9WTWv1uLw6dxmRySlcnbvMei3yxtHr11h72DpH v5mZaaULOzRxcqJbWnAiKbIR25g3DpyKti9dCrV6GrUHAut2o4Ib46YNn/KbOebrWTGmUu6U/jCw 0BQhBE+ePmUyM6d+jDxgdJkaeqPv+YFTqjGtPLBTKuHl4c9M9UQjV3QQAlq9cq7MzbF9G/uFjhIu 3BIAuH/vHhuR3dJPqVBhkI+96XiM3TiimOR2QjkzO4v8Zg7v35/g6PXrrumtvVLXNKxmMqZUYOtA Qss30AJKlKossw7Po3bpuDBuY+ewO0t3bMugUQZtaLQADYXnyeSfv/sL9ioVKIqCmdlZ/POf//Tk aUYHjqokYxUZEDLBzruYFE1PiL1vvzXtc/7jedy6uQhVVQPjplWKKMZ2cHaJ9MTQQ6eXz3ZrBmXn SyfEJHbLFVydu4zQpUvQajVuhQx1TUPMoHx5eXDQVyF9t2ZWO6UStnI5dm1oiYuIILDztlMqddxM 0+26MlVJGnkXOC6UOE6jsZ3Shp7YblWgrMvvifaIQ6Vjxke4nRLnWFWhv+O7g5ex501dq+Pk/XvT YGB8nYb9jJNnWgjUTmbmB7gw7kFgt3zsxDjLzKqSzFJ2rdElatzd8Ktxj9wtGRQRQcCrw0OTwNWK H5KrEkkRiR62cVqwMSrp/YZvR+5eiUxOYTntnBk3zmzl8lAVJZCZXWRCodCoD2EgxGKxsUtT9ZLA uNFaYQvwHxfauC+CBKvb8rqf8e2Estf22EBrtY2XKkleo+s6Kw1nR7cKUcaqXOPGwIy7tYT7gK08 CtEovt78htV3psoboDOEVSxsm3reGHvh2G1vh7Hh00WFxrR1XYcuOeeQ2Bm3NZQqbEexU/oDIoLA qnnNzM7iz9/9xfQ+qm7iIbw4EOM+VlWsrmRYK5BQKARVUfDZ0qdYf7yB+6kUXh4cMInXpUsh0wku FgrQtFah82pbemaENoX67e9/13Uxxy0MJsuSr28AmhdjF8NvNHTsliuOq720J47x+n31xZd48vQH Vlz+6PVrUw5JXdNQLBS4KT4/EJkZlShRmVizeSoJo1IlKl2yypeobIlKx+j7HqysNOVnUlN+JjVv 3Vxk79Xf6bbH0E1iRaGfbSS/mWPvp/vlFf2d3twtl5sPVlaa+c2c6Zx3Owf03Nrx0YeTzfxmjv2f nnNKfjNnunZGuZnTNRk2nk8oaQL7sqUDWCIpov72jW3RRV3XmTzJmtlG8x8EIdpasEiKePL0BzZa eFHF35qPIbZHe1FMoqE3TEvWvLGayUBRFIhiEoSEcevmoicT5frbNyz2T5tMGZU4jzbWIUSj0HUd q5kMKzq6/niDm/DjwHzumMGwjUvEgiCYJidr2SyKhQK+3//e1vdzmhB+fvduuwva+fu2xyyujVEZ JMuSSRHEG9YSxLQssRcTQKvfbVXiVF/8aNKYzszOcjUxH8DI3VkqgfawKRYKHWWFBUHAcjoNrVbr mDi6MYgmT1ZoFy+vFD+DIJEUmXaS6hy98nlDoUumm8RO5WMszP/15jee7NcrPDdupz42y+m043to +49iodCzCzCMieBq5gH3xWha+edlRCansJrJYDmd8ux4wySMnVIJ9bdvEIvHUZXkjoZPdKROWJqv 8oDnxk0f4UYjTSTFjke/EWN97l6N9n//9CfT/rymKrUUJcscPWbtyG/m8PynF6i/fYPnP71AfjPX YYD9UpVkRCanTE9SesPwpG7vhuc+91r2IV4eHKAqydgieWbUbonxALC+8djVsKlwF2jdOLShpxcu g53ahh4vN2EtG6jx0RGT/qvVzqc+p9/5yf4+gFaolro8XFWU6sJAJpQ7pRJWMxnbdFInY6GPQKdW H1bFjhCNYu3hQ08ewbpNdEFVFFulCU+sZR/iyf4+9ioVhMOE3aTGNNZelt+tekfjtaBzKEIIdv5o n/NOCOlLATQsBmLcYRLGk6c/dPS6MZ7AnVKpQwKWSIr468RTkwJmfeNxxyKMWy8cI8eK2hpxbLan y/MAQGwMeFzSRF8e/oy9SqXdf3ICrw4PTTckDbNenZ9nq4sU6jpqmtaRE95L2xXjMfCIb/O5+2n4 xF0BR48IlDg+JZEUsaymHePgVD8I2Ie4/AQhxDZxipCJoOHTuNJNXdPQG7gyNzekoxkdvLoNg+ZC 53PzPFkMOD8X2rgpda0+6kPwnF+Ojnz5vfrB125JL7DybA7ttweBEI2y/ujjrr7nGd9GS/phK5d3 nHgSMgFdf+day3rYNBo6FEWBIERxcnLimjwmismxVNF4QWDcAb4l8LkDfEtg3AG+JTDuAN8SGHeA bwmMO8C3BMYd4FsC4w7wLYFxB/iWwLgDfEtg3AG+JTDuAN8SGHeAbwmMO8C3BMYd4FsC4w7wLYFx B/iWwLgDfEtg3AG+5f8B+tOBlCOdnTcAAAAASUVORK5CYII= "
       preserveAspectRatio="none"
       height="42.597916"
       width="48.418751" />
    <text
       xml:space="preserve"
       style="font-style:normal;font-weight:normal;font-size:10.58333302px;line-height:1.25;font-family:sans-serif;letter-spacing:0px;word-spacing:0px;fill:#000000;fill-opacity:1;stroke:none;stroke-width:0.26458332"
       x="52.916664"
       y="137.87735"
       id="text4551"><tspan
         sodipodi:role="line"
         id="tspan4549"
         x="52.916664"
         y="137.87735"
         style="stroke-width:0.26458332">OR00</tspan></text>
    <text
       xml:space="preserve"
       style="font-style:normal;font-weight:normal;font-size:10.58333302px;line-height:1.25;font-family:sans-serif;letter-spacing:0px;word-spacing:0px;fill:#000000;fill-opacity:1;stroke:none;stroke-width:0.26458332"
       x="72.294601"
       y="37.633804"
       id="text4555"><tspan
         sodipodi:role="line"
         id="tspan4553"
         x="72.294601"
         y="37.633804"
         style="stroke-width:0.26458332">a</tspan></text>
    <text
       xml:space="preserve"
       style="font-style:normal;font-weight:normal;font-size:10.58333302px;line-height:1.25;font-family:sans-serif;letter-spacing:0px;word-spacing:0px;fill:#000000;fill-opacity:1;stroke:none;stroke-width:0.26458332"
       x="129.12393"
       y="179.36772"
       id="text4559-7-3"><tspan
         sodipodi:role="line"
         id="tspan4557-5-5"
         x="129.12393"
         y="179.36772"
         style="stroke-width:0.26458332">AND01</tspan></text>
    <text
       xml:space="preserve"
       style="font-style:normal;font-weight:normal;font-size:10.58333302px;line-height:1.25;font-family:sans-serif;letter-spacing:0px;word-spacing:0px;fill:#000000;fill-opacity:1;stroke:none;stroke-width:0.26458332"
       x="131.91901"
       y="200.48299"
       id="text4618"><tspan
         sodipodi:role="line"
         id="tspan4616"
         x="131.91901"
         y="200.48299"
         style="stroke-width:0.26458332">NOT03</tspan></text>
    <text
       xml:space="preserve"
       style="font-style:normal;font-weight:normal;font-size:10.58333302px;line-height:1.25;font-family:sans-serif;letter-spacing:0px;word-spacing:0px;fill:#000000;fill-opacity:1;stroke:none;stroke-width:0.26458332"
       x="131.91902"
       y="212.40785"
       id="text4622"><tspan
         sodipodi:role="line"
         id="tspan4620"
         x="131.91902"
         y="212.40785"
         style="stroke-width:0.26458332">NOT02</tspan></text>
    <text
       xml:space="preserve"
       style="font-style:normal;font-weight:normal;font-size:10.58333302px;line-height:1.25;font-family:sans-serif;letter-spacing:0px;word-spacing:0px;fill:#000000;fill-opacity:1;stroke:none;stroke-width:0.26458332"
       x="132.09483"
       y="223.71339"
       id="text4622-6"><tspan
         sodipodi:role="line"
         id="tspan4620-2"
         x="132.09483"
         y="223.71339"
         style="stroke-width:0.26458332">NOT01</tspan></text>
    <text
       xml:space="preserve"
       style="font-style:normal;font-weight:normal;font-size:10.58333302px;line-height:1.25;font-family:sans-serif;letter-spacing:0px;word-spacing:0px;fill:#000000;fill-opacity:1;stroke:none;stroke-width:0.26458332"
       x="130.18007"
       y="121.09731"
       id="text4551-0"><tspan
         sodipodi:role="line"
         id="tspan4549-6"
         x="130.18007"
         y="121.09731"
         style="stroke-width:0.26458332">OR01</tspan></text>
    <text
       xml:space="preserve"
       style="font-style:normal;font-weight:normal;font-size:10.58333302px;line-height:1.25;font-family:sans-serif;letter-spacing:0px;word-spacing:0px;fill:#000000;fill-opacity:1;stroke:none;stroke-width:0.26458332"
       x="129.82724"
       y="138.37595"
       id="text4551-0-2"><tspan
         sodipodi:role="line"
         id="tspan4549-6-6"
         x="129.82724"
         y="138.37595"
         style="stroke-width:0.26458332">OR02</tspan></text>
    <text
       xml:space="preserve"
       style="font-style:normal;font-weight:normal;font-size:10.58333302px;line-height:1.25;font-family:sans-serif;letter-spacing:0px;word-spacing:0px;fill:#000000;fill-opacity:1;stroke:none;stroke-width:0.26458332"
       x="53.847469"
       y="120.86127"
       id="text4551-0-2-1"><tspan
         sodipodi:role="line"
         id="tspan4549-6-6-8"
         x="53.847469"
         y="120.86127"
         style="stroke-width:0.26458332">OR03</tspan></text>
    <text
       xml:space="preserve"
       style="font-style:normal;font-weight:normal;font-size:10.58333302px;line-height:1.25;font-family:sans-serif;letter-spacing:0px;word-spacing:0px;fill:#000000;fill-opacity:1;stroke:none;stroke-width:0.26458332"
       x="51.003841"
       y="178.62242"
       id="text4559-7-3-3"><tspan
         sodipodi:role="line"
         id="tspan4557-5-5-6"
         x="51.003841"
         y="178.62242"
         style="stroke-width:0.26458332">AND03</tspan><tspan
         sodipodi:role="line"
         x="51.003841"
         y="191.85159"
         style="stroke-width:0.26458332"
         id="tspan5272" /><tspan
         sodipodi:role="line"
         x="51.003841"
         y="205.08075"
         style="stroke-width:0.26458332"
         id="tspan5231" /></text>
    <text
       xml:space="preserve"
       style="font-style:normal;font-weight:normal;font-size:10.58333302px;line-height:1.25;font-family:sans-serif;letter-spacing:0px;word-spacing:0px;fill:#000000;fill-opacity:1;stroke:none;stroke-width:0.26458332"
       x="52.61388"
       y="222.96808"
       id="text4618-7"><tspan
         sodipodi:role="line"
         id="tspan4616-5"
         x="52.61388"
         y="222.96808"
         style="stroke-width:0.26458332">NOT04</tspan></text>
    <text
       xml:space="preserve"
       style="font-style:normal;font-weight:normal;font-size:10.58333302px;line-height:1.25;font-family:sans-serif;letter-spacing:0px;word-spacing:0px;fill:#000000;fill-opacity:1;stroke:none;stroke-width:0.26458332"
       x="135.63731"
       y="162.97102"
       id="text4559-7-3-3-3"><tspan
         sodipodi:role="line"
         id="tspan4557-5-5-6-5"
         x="135.63731"
         y="162.97102"
         style="stroke-width:0.26458332">AND02</tspan><tspan
         sodipodi:role="line"
         x="135.63731"
         y="176.2002"
         style="stroke-width:0.26458332"
         id="tspan5231-6" /></text>
    <text
       xml:space="preserve"
       style="font-style:normal;font-weight:normal;font-size:10.58333302px;line-height:1.25;font-family:sans-serif;letter-spacing:0px;word-spacing:0px;fill:#000000;fill-opacity:1;stroke:none;stroke-width:0.26458332"
       x="51.311897"
       y="158.87184"
       id="text4559-7-3-3-2"><tspan
         sodipodi:role="line"
         id="tspan4557-5-5-6-9"
         x="51.311897"
         y="158.87184"
         style="stroke-width:0.26458332">AND04</tspan><tspan
         sodipodi:role="line"
         x="51.311897"
         y="172.10101"
         style="stroke-width:0.26458332"
         id="tspan5298" /><tspan
         sodipodi:role="line"
         x="51.311897"
         y="185.33017"
         style="stroke-width:0.26458332"
         id="tspan5272-1" /><tspan
         sodipodi:role="line"
         x="51.311897"
         y="198.55934"
         style="stroke-width:0.26458332"
         id="tspan5231-2" /></text>
  </g>
</svg>
