\relax 
\catcode `"\active 
\catcode `<\active 
\catcode `>\active 
\@nameuse{es@quoting}
\babel@aux{spanish}{}
\@writefile{toc}{\contentsline {section}{\numberline {1}Seguridad en la ejecuci\IeC {\'o}n}{1}\protected@file@percent }
\@writefile{toc}{\contentsline {section}{\numberline {2}Objetivos de aprendizaje}{1}\protected@file@percent }
\@writefile{toc}{\contentsline {section}{\numberline {3}Material y Equipo}{1}\protected@file@percent }
\@writefile{toc}{\contentsline {section}{\numberline {4}Introducci\IeC {\'o}n}{2}\protected@file@percent }
\@writefile{toc}{\contentsline {section}{\numberline {5}Actividad de investigaci\IeC {\'o}n previa}{2}\protected@file@percent }
\@writefile{toc}{\contentsline {section}{\numberline {6}Desarrollo}{2}\protected@file@percent }
\@writefile{lof}{\contentsline {figure}{\numberline {1}{\ignorespaces Circuito l\IeC {\'o}gico de trabajo\relax }}{2}\protected@file@percent }
\providecommand*\caption@xref[2]{\@setref\relax\@undefined{#1}}
\newlabel{fig:circuito}{{1}{2}}
\@writefile{lof}{\contentsline {figure}{\numberline {2}{\ignorespaces Circuito Implementado F\IeC {\'\i }sicamente\relax }}{3}\protected@file@percent }
\newlabel{fig:circuitoPrueba}{{2}{3}}
\@writefile{lot}{\contentsline {table}{\numberline {1}{\ignorespaces Resultados te\IeC {\'o}ricos y experimentales del circuito\relax }}{3}\protected@file@percent }
\newlabel{resultados}{{1}{3}}
\@writefile{toc}{\contentsline {section}{\numberline {7}Cuestionario}{4}\protected@file@percent }
\@writefile{toc}{\contentsline {subsection}{\numberline {7.1}\IeC {\textquestiondown }Qu\IeC {\'e} es una suma l\IeC {\'o}gica?}{4}\protected@file@percent }
\@writefile{toc}{\contentsline {subsection}{\numberline {7.2}\IeC {\textquestiondown }Qu\IeC {\'e} es un producto l\IeC {\'o}gico?}{4}\protected@file@percent }
\@writefile{toc}{\contentsline {subsection}{\numberline {7.3}\IeC {\textquestiondown }Qu\IeC {\'e} es una inversi\IeC {\'o}n l\IeC {\'o}gica?}{4}\protected@file@percent }
\@writefile{toc}{\contentsline {section}{\numberline {8}Conclusiones}{4}\protected@file@percent }
